<svg width="451" height="736" viewBox="0 0 451 736" fill="none" xmlns="http://www.w3.org/2000/svg">
<path d="M203.361 360.845C203.324 360.975 199.475 374.156 199.925 395.983C200.346 417.82 205.055 448.314 222.099 482.999C224.591 488.07 227.335 493.243 230.392 498.474C232.727 502.507 234.901 506.555 236.896 510.616C258.876 555.344 260.498 601.458 256.589 636.419C254.635 653.901 251.314 668.567 248.47 678.872C247.055 684.021 245.754 688.072 244.815 690.842C244.347 692.213 243.965 693.28 243.706 693.984C243.564 694.343 243.472 694.601 243.397 694.789L243.326 694.987L243.305 695.047L246.404 696.295C246.441 696.2 255.951 672.193 259.904 636.809C263.848 601.44 262.246 554.651 239.885 509.146C237.854 505.014 235.659 500.888 233.277 496.792C230.267 491.624 227.545 486.529 225.088 481.529C208.281 447.328 203.676 417.353 203.259 395.935C203.038 385.234 203.882 376.667 204.772 370.791C205.211 367.857 205.662 365.596 206.005 364.074C206.17 363.317 206.322 362.737 206.421 362.358C206.476 362.163 206.509 362.024 206.531 361.933L206.564 361.829L206.569 361.805L203.361 360.847" fill="#5D01DC" fill-opacity="0.05"/>
<g filter="url(#filter0_f_173_3064)">
<path d="M73.9628 321.53C20.8464 292.045 1.6371 225.054 31.0576 171.902C60.478 118.75 127.387 99.5638 180.504 129.049C233.62 158.534 252.829 225.525 223.409 278.677L170.138 374.918L73.9628 321.53Z" fill="#5D01DC" fill-opacity="0.05"/>
</g>
<path d="M102.662 297.826C48.0969 267.537 28.3637 198.719 58.5865 144.117C88.8094 89.5152 157.543 69.806 212.108 100.095C266.673 130.385 286.407 199.203 256.184 253.804L201.461 352.67L102.662 297.826Z" fill="#5D01DC" fill-opacity="0.05"/>
<g filter="url(#filter1_f_173_3064)">
<circle cx="202.265" cy="154.882" r="36" transform="rotate(-16 202.265 154.882)" fill="white"/>
</g>
<path d="M201.491 351.72L214.277 363.659L196.974 368.62L201.491 351.72Z" fill="#5D01DC" fill-opacity="0.1"/>
<defs>
<filter id="filter0_f_173_3064" x="-7.73047" y="90.2129" width="269.928" height="309.705" filterUnits="userSpaceOnUse" color-interpolation-filters="sRGB">
<feFlood flood-opacity="0" result="BackgroundImageFix"/>
<feBlend mode="normal" in="SourceGraphic" in2="BackgroundImageFix" result="shape"/>
<feGaussianBlur stdDeviation="12.5" result="effect1_foregroundBlur_173_3064"/>
</filter>
<filter id="filter1_f_173_3064" x="98.2559" y="50.873" width="208.018" height="208.018" filterUnits="userSpaceOnUse" color-interpolation-filters="sRGB">
<feFlood flood-opacity="0" result="BackgroundImageFix"/>
<feBlend mode="normal" in="SourceGraphic" in2="BackgroundImageFix" result="shape"/>
<feGaussianBlur stdDeviation="34" result="effect1_foregroundBlur_173_3064"/>
</filter>
</defs>
</svg>
