<svg width="175" height="295" viewBox="0 0 175 295" fill="none" xmlns="http://www.w3.org/2000/svg">
<path d="M100.298 147.533C100.266 147.583 97.0526 152.697 94.608 161.995C92.1503 171.294 90.4556 184.78 93.4567 201.542C93.8955 203.993 94.4281 206.517 95.086 209.105C95.5837 211.096 96.0118 213.075 96.3632 215.038C100.233 236.654 95.3519 256.38 89.4842 270.709C86.5504 277.875 83.38 283.682 80.9369 287.7C79.7186 289.708 78.6814 291.265 77.951 292.324C77.5882 292.848 77.2983 293.253 77.1043 293.52C77.0008 293.654 76.9311 293.753 76.8765 293.823L76.8229 293.898L76.8068 293.921L77.9627 294.827C77.9899 294.791 84.8974 285.781 90.8348 271.278C96.7664 256.779 101.738 236.77 97.8007 214.779C97.4432 212.782 97.0155 210.768 96.5053 208.744C95.8599 206.189 95.327 203.7 94.8943 201.283C91.9351 184.755 93.6109 171.501 96.0199 162.38C97.2181 157.822 98.608 154.296 99.6926 151.916C100.232 150.727 100.695 149.825 101.023 149.221C101.184 148.921 101.318 148.694 101.406 148.545C101.452 148.47 101.483 148.415 101.503 148.379L101.53 148.339L101.535 148.329L100.298 147.533Z" fill="#EAC5FF"/>
<g filter="url(#filter0_f_173_3221)">
<path d="M53.2411 122.348C34.3303 103.378 34.3303 72.6218 53.2411 53.6518C72.1519 34.6818 102.812 34.6818 121.723 53.6518C140.634 72.6218 140.634 103.378 121.723 122.348L87.4822 156.696L53.2411 122.348Z" fill="#5D01DC" fill-opacity="0.3"/>
</g>
<path d="M65.3001 108.41C45.8044 88.8538 45.8044 57.1462 65.3001 37.5895C84.7958 18.0328 116.405 18.0328 135.9 37.5895C155.396 57.1462 155.396 88.8538 135.9 108.41L100.6 143.821L65.3001 108.41Z" fill="#5D01DC"/>
<g filter="url(#filter1_f_173_3221)">
<circle cx="117" cy="52" r="16" fill="white"/>
</g>
<path d="M101 143L105 150H97L101 143Z" fill="#5D01DC"/>
<defs>
<filter id="filter0_f_173_3221" x="0.0585938" y="0.423828" width="174.848" height="195.273" filterUnits="userSpaceOnUse" color-interpolation-filters="sRGB">
<feFlood flood-opacity="0" result="BackgroundImageFix"/>
<feBlend mode="normal" in="SourceGraphic" in2="BackgroundImageFix" result="shape"/>
<feGaussianBlur stdDeviation="19.5" result="effect1_foregroundBlur_173_3221"/>
</filter>
<filter id="filter1_f_173_3221" x="68" y="3" width="98" height="98" filterUnits="userSpaceOnUse" color-interpolation-filters="sRGB">
<feFlood flood-opacity="0" result="BackgroundImageFix"/>
<feBlend mode="normal" in="SourceGraphic" in2="BackgroundImageFix" result="shape"/>
<feGaussianBlur stdDeviation="16.5" result="effect1_foregroundBlur_173_3221"/>
</filter>
</defs>
</svg>
