<svg width="2000" height="199" viewBox="0 0 2000 199" fill="none" xmlns="http://www.w3.org/2000/svg">
<path d="M564.124 156.973C563.829 156.919 556.855 155.627 554.111 152.386L554 152.255L556.327 150L556.481 150.09C556.535 150.126 561.923 153.322 565.78 153.322C566.04 153.322 566.292 153.309 566.527 153.277L567 153.219L564.269 157L564.124 156.973Z" fill="#5D01DC"/>
<path d="M556.629 149L556.372 149.26L554.254 151.418L554 151.678L554.227 151.957C557.075 155.483 564.267 156.884 564.572 156.942L564.867 157L565.031 156.759L567.469 153.219L568 152.449L567.036 152.574C566.806 152.603 566.56 152.622 566.303 152.622C562.439 152.622 556.998 149.231 556.944 149.197L556.629 149ZM556.698 149.549C556.698 149.549 562.256 153.041 566.303 153.041C566.575 153.041 566.84 153.026 567.097 152.993L564.659 156.533C564.659 156.533 557.359 155.146 554.58 151.702L556.698 149.549Z" fill="#E4B7FF"/>
<path d="M635.681 196.899C635.497 196.661 631.179 191.034 631.309 186.79L631.313 186.619L634.552 186.5L634.606 186.67C634.622 186.733 636.488 192.713 639.354 195.293C639.547 195.468 639.744 195.627 639.939 195.76L640.33 196.033L635.77 197.016L635.681 196.899Z" fill="#5D01DC"/>
<path d="M635.445 185.959L635.081 185.98L632.063 186.166L631.7 186.189L631.681 186.549C631.439 191.075 635.846 196.929 636.034 197.175L636.215 197.416L636.498 197.347L640.678 196.347L641.588 196.13L640.788 195.578C640.598 195.445 640.402 195.295 640.211 195.123C637.339 192.538 635.565 186.377 635.547 186.316L635.445 185.959ZM635.129 186.413C635.129 186.413 636.923 192.727 639.931 195.435C640.133 195.617 640.34 195.784 640.553 195.93L636.373 196.93C636.373 196.93 631.876 191.014 632.115 186.595L635.129 186.413Z" fill="#E4B7FF"/>
<path d="M514.124 54.973C513.829 54.919 506.855 53.627 504.111 50.3859L504 50.2553L506.327 48L506.481 48.09C506.535 48.126 511.923 51.3222 515.78 51.3222C516.04 51.3222 516.292 51.3087 516.527 51.2772L517 51.2186L514.269 55L514.124 54.973Z" fill="#5D01DC"/>
<path d="M506.629 47L506.372 47.2601L504.254 49.4178L504 49.6779L504.227 49.9573C507.075 53.4828 514.267 54.8844 514.572 54.9422L514.867 55L515.031 54.7592L517.469 51.2192L518 50.4485L517.036 50.5737C516.806 50.6026 516.56 50.6219 516.303 50.6219C512.439 50.6219 506.998 47.2312 506.944 47.1975L506.629 47ZM506.698 47.5491C506.698 47.5491 512.256 51.0409 516.303 51.0409C516.575 51.0409 516.84 51.0265 517.097 50.9928L514.659 54.5328C514.659 54.5328 507.359 53.1457 504.58 49.702L506.698 47.5491Z" fill="#E4B7FF"/>
<path d="M364.53 99.8111C364.347 99.5733 360.028 93.9465 360.159 89.7023L360.163 89.5307L363.401 89.4117L363.456 89.5819C363.472 89.6448 365.337 95.6252 368.203 98.2056C368.397 98.3801 368.593 98.5386 368.789 98.6724L369.179 98.9452L364.62 99.9281L364.53 99.8111Z" fill="#5D01DC"/>
<path d="M364.295 88.8707L363.93 88.8921L360.912 89.0785L360.549 89.1016L360.531 89.4609C360.289 93.9868 364.695 99.8407 364.883 100.088L365.064 100.328L365.347 100.259L369.527 99.2594L370.438 99.0421L369.637 98.4898C369.447 98.3575 369.251 98.2071 369.061 98.0355C366.189 95.4496 364.415 89.2894 364.397 89.2279L364.295 88.8707ZM363.979 89.3248C363.979 89.3248 365.773 95.6389 368.78 98.3469C368.983 98.5291 369.189 98.6957 369.402 98.8421L365.222 99.842C365.222 99.842 360.726 93.9265 360.964 89.5076L363.979 89.3248Z" fill="#E4B7FF"/>
<path d="M761.53 91.8111C761.347 91.5733 757.028 85.9465 757.159 81.7023L757.163 81.5307L760.401 81.4117L760.456 81.5819C760.472 81.6448 762.337 87.6252 765.203 90.2056C765.397 90.3801 765.593 90.5386 765.789 90.6724L766.179 90.9452L761.62 91.9281L761.53 91.8111Z" fill="#5D01DC"/>
<path d="M761.295 80.8707L760.93 80.8921L757.912 81.0785L757.549 81.1016L757.531 81.4609C757.289 85.9868 761.695 91.8407 761.883 92.0876L762.064 92.3283L762.347 92.2592L766.527 91.2594L767.438 91.0421L766.637 90.4898C766.447 90.3575 766.251 90.2071 766.061 90.0355C763.189 87.4496 761.415 81.2894 761.397 81.2279L761.295 80.8707ZM760.979 81.3248C760.979 81.3248 762.773 87.6389 765.78 90.3469C765.983 90.5291 766.189 90.6957 766.402 90.8421L762.222 91.842C762.222 91.842 757.726 85.9265 757.964 81.5076L760.979 81.3248Z" fill="#E4B7FF"/>
<path d="M773.124 149.973C772.829 149.919 765.855 148.627 763.111 145.386L763 145.255L765.327 143L765.481 143.09C765.535 143.126 770.923 146.322 774.78 146.322C775.04 146.322 775.292 146.309 775.527 146.277L776 146.219L773.269 150L773.124 149.973Z" fill="#EFF89C"/>
<path d="M765.629 142L765.372 142.26L763.254 144.418L763 144.678L763.227 144.957C766.075 148.483 773.267 149.884 773.572 149.942L773.867 150L774.031 149.759L776.469 146.219L777 145.449L776.036 145.574C775.806 145.603 775.56 145.622 775.303 145.622C771.439 145.622 765.998 142.231 765.944 142.197L765.629 142ZM765.698 142.549C765.698 142.549 771.256 146.041 775.303 146.041C775.575 146.041 775.84 146.026 776.097 145.993L773.659 149.533C773.659 149.533 766.359 148.146 763.58 144.702L765.698 142.549Z" fill="#E4B7FF"/>
<path d="M441.53 189.811C441.347 189.573 437.028 183.946 437.159 179.702L437.163 179.531L440.401 179.412L440.456 179.582C440.472 179.645 442.337 185.625 445.203 188.206C445.397 188.38 445.593 188.539 445.789 188.672L446.179 188.945L441.62 189.928L441.53 189.811Z" fill="#EFF89C"/>
<path d="M441.295 178.871L440.93 178.892L437.912 179.078L437.549 179.102L437.531 179.461C437.289 183.987 441.695 189.841 441.883 190.088L442.064 190.328L442.347 190.259L446.527 189.259L447.438 189.042L446.637 188.49C446.447 188.358 446.251 188.207 446.061 188.036C443.189 185.45 441.415 179.289 441.397 179.228L441.295 178.871ZM440.979 179.325C440.979 179.325 442.773 185.639 445.78 188.347C445.983 188.529 446.189 188.696 446.402 188.842L442.222 189.842C442.222 189.842 437.726 183.927 437.964 179.508L440.979 179.325Z" fill="#E4B7FF"/>
<path d="M535.53 100.811C535.347 100.573 531.028 94.9465 531.159 90.7023L531.163 90.5307L534.401 90.4117L534.456 90.5819C534.472 90.6448 536.337 96.6252 539.203 99.2056C539.397 99.3801 539.593 99.5386 539.789 99.6724L540.179 99.9452L535.62 100.928L535.53 100.811Z" fill="#EFF89C"/>
<path d="M535.295 89.8707L534.93 89.8921L531.912 90.0785L531.549 90.1016L531.531 90.4609C531.289 94.9868 535.695 100.841 535.883 101.088L536.064 101.328L536.347 101.259L540.527 100.259L541.438 100.042L540.637 99.4898C540.447 99.3575 540.251 99.2071 540.061 99.0355C537.189 96.4496 535.415 90.2894 535.397 90.2279L535.295 89.8707ZM534.979 90.3248C534.979 90.3248 536.773 96.6389 539.78 99.3469C539.983 99.5291 540.189 99.6957 540.402 99.8421L536.222 100.842C536.222 100.842 531.726 94.9265 531.964 90.5076L534.979 90.3248Z" fill="#E4B7FF"/>
<path d="M353.566 44.8079C353.381 44.5714 349.023 38.9755 349.123 34.7305L349.126 34.5589L352.364 34.4168L352.419 34.5866C352.436 34.6494 354.344 40.6164 357.228 43.1762C357.423 43.3494 357.62 43.5065 357.817 43.6388L358.209 43.9089L353.657 44.9243L353.566 44.8079Z" fill="#EFF89C"/>
<path d="M353.253 33.8753L352.889 33.8993L349.872 34.1072L349.509 34.1329L349.494 34.4924C349.283 39.0198 353.732 44.8421 353.922 45.0877L354.104 45.3272L354.387 45.256L358.56 44.2264L359.468 44.0026L358.664 43.4561C358.473 43.3251 358.276 43.1761 358.084 43.0059C355.194 40.4406 353.376 34.2932 353.357 34.2318L353.253 33.8753ZM352.94 34.3316C352.94 34.3316 354.779 40.6328 357.806 43.3193C358.01 43.5 358.218 43.6651 358.432 43.8101L354.259 44.8397C354.259 44.8397 349.72 38.9565 349.927 34.536L352.94 34.3316Z" fill="#E4B7FF"/>
<path d="M465.927 79.7934C465.71 80.0006 460.565 84.8835 456.331 85.1977L456.16 85.2112L455.703 82.003L455.866 81.9309C455.927 81.9085 461.68 79.4281 463.946 76.3084C464.1 76.0973 464.237 75.8856 464.35 75.677L464.58 75.2602L466.034 79.692L465.927 79.7934Z" fill="#EFF89C"/>
<path d="M455.071 81.1708L455.131 81.5315L455.631 84.5131L455.692 84.8718L456.052 84.8525C460.578 84.6205 465.939 79.6259 466.165 79.4133L466.386 79.2081L466.287 78.9338L464.856 74.8811L464.545 73.9985L464.079 74.8523C463.968 75.0552 463.838 75.2657 463.688 75.4731C461.416 78.5996 455.475 81.0081 455.416 81.0324L455.071 81.1708ZM455.556 81.4378C455.556 81.4378 461.648 78.9935 464.027 75.7194C464.187 75.4992 464.331 75.2763 464.454 75.0491L465.886 79.1017C465.886 79.1017 460.473 84.1922 456.053 84.4166L455.556 81.4378Z" fill="#E4B7FF"/>
<path d="M720.124 120.973C719.829 120.919 712.855 119.627 710.111 116.386L710 116.255L712.327 114L712.481 114.09C712.535 114.126 717.923 117.322 721.78 117.322C722.04 117.322 722.292 117.309 722.527 117.277L723 117.219L720.269 121L720.124 120.973Z" fill="#F99300"/>
<path d="M712.629 113L712.372 113.26L710.254 115.418L710 115.678L710.227 115.957C713.075 119.483 720.267 120.884 720.572 120.942L720.867 121L721.031 120.759L723.469 117.219L724 116.449L723.036 116.574C722.806 116.603 722.56 116.622 722.303 116.622C718.439 116.622 712.998 113.231 712.944 113.197L712.629 113ZM712.698 113.549C712.698 113.549 718.256 117.041 722.303 117.041C722.575 117.041 722.84 117.026 723.097 116.993L720.659 120.533C720.659 120.533 713.359 119.146 710.58 115.702L712.698 113.549Z" fill="#E4B7FF"/>
<path d="M367.124 165.973C366.829 165.919 359.855 164.627 357.111 161.386L357 161.255L359.327 159L359.481 159.09C359.535 159.126 364.923 162.322 368.78 162.322C369.04 162.322 369.292 162.309 369.527 162.277L370 162.219L367.269 166L367.124 165.973Z" fill="#F99300"/>
<path d="M359.629 158L359.372 158.26L357.254 160.418L357 160.678L357.227 160.957C360.075 164.483 367.267 165.884 367.572 165.942L367.867 166L368.031 165.759L370.469 162.219L371 161.449L370.036 161.574C369.806 161.603 369.56 161.622 369.303 161.622C365.439 161.622 359.998 158.231 359.944 158.197L359.629 158ZM359.698 158.549C359.698 158.549 365.256 162.041 369.303 162.041C369.575 162.041 369.84 162.026 370.097 161.993L367.659 165.533C367.659 165.533 360.359 164.146 357.58 160.702L359.698 158.549Z" fill="#E4B7FF"/>
<path d="M770.124 35.973C769.829 35.919 762.855 34.627 760.111 31.3859L760 31.2553L762.327 29L762.481 29.09C762.535 29.126 767.923 32.3222 771.78 32.3222C772.04 32.3222 772.292 32.3087 772.527 32.2772L773 32.2186L770.269 36L770.124 35.973Z" fill="#F99300"/>
<path d="M762.629 28L762.372 28.2601L760.254 30.4178L760 30.6779L760.227 30.9573C763.075 34.4828 770.267 35.8844 770.572 35.9422L770.867 36L771.031 35.7592L773.469 32.2192L774 31.4485L773.036 31.5737C772.806 31.6026 772.56 31.6219 772.303 31.6219C768.439 31.6219 762.998 28.2312 762.944 28.1975L762.629 28ZM762.698 28.5491C762.698 28.5491 768.256 32.0409 772.303 32.0409C772.575 32.0409 772.84 32.0265 773.097 31.9928L770.659 35.5328C770.659 35.5328 763.359 34.1457 760.58 30.702L762.698 28.5491Z" fill="#E4B7FF"/>
<path d="M623.927 7.79338C623.71 8.00058 618.565 12.8835 614.331 13.1977L614.16 13.2112L613.703 10.003L613.866 9.93095C613.927 9.90845 619.68 7.42811 621.946 4.30836C622.1 4.0973 622.237 3.88559 622.35 3.67704L622.58 3.26016L624.034 7.69198L623.927 7.79338Z" fill="#F99300"/>
<path d="M613.071 9.17076L613.131 9.53147L613.631 12.5131L613.692 12.8718L614.052 12.8525C618.578 12.6205 623.939 7.62591 624.165 7.41329L624.386 7.20811L624.287 6.93379L622.856 2.88111L622.545 1.99848L622.079 2.85225C621.968 3.05521 621.838 3.26571 621.688 3.47313C619.416 6.59962 613.475 9.00812 613.416 9.03242L613.071 9.17076ZM613.556 9.43785C613.556 9.43785 619.648 6.99354 622.027 3.71943C622.187 3.49923 622.331 3.27634 622.454 3.0491L623.886 7.10174C623.886 7.10174 618.473 12.1922 614.053 12.4166L613.556 9.43785Z" fill="#E4B7FF"/>
<path d="M414.124 67.973C413.829 67.919 406.855 66.627 404.111 63.3859L404 63.2553L406.327 61L406.481 61.09C406.535 61.126 411.923 64.3222 415.78 64.3222C416.04 64.3222 416.292 64.3087 416.527 64.2772L417 64.2186L414.269 68L414.124 67.973Z" fill="#DF5698"/>
<path d="M406.629 60L406.372 60.2601L404.254 62.4178L404 62.6779L404.227 62.9573C407.075 66.4828 414.267 67.8844 414.572 67.9422L414.867 68L415.031 67.7592L417.469 64.2192L418 63.4485L417.036 63.5737C416.806 63.6026 416.56 63.6219 416.303 63.6219C412.439 63.6219 406.998 60.2312 406.944 60.1975L406.629 60ZM406.698 60.5491C406.698 60.5491 412.256 64.0409 416.303 64.0409C416.575 64.0409 416.84 64.0265 417.097 63.9928L414.659 67.5328C414.659 67.5328 407.359 66.1457 404.58 62.702L406.698 60.5491Z" fill="#E4B7FF"/>
<path d="M665.124 27.973C664.829 27.919 657.855 26.627 655.111 23.3859L655 23.2553L657.327 21L657.481 21.09C657.535 21.126 662.923 24.3222 666.78 24.3222C667.04 24.3222 667.292 24.3087 667.527 24.2772L668 24.2186L665.269 28L665.124 27.973Z" fill="#DF5698"/>
<path d="M657.629 20L657.372 20.2601L655.254 22.4178L655 22.6779L655.227 22.9573C658.075 26.4828 665.267 27.8844 665.572 27.9422L665.867 28L666.031 27.7592L668.469 24.2192L669 23.4485L668.036 23.5737C667.806 23.6026 667.56 23.6219 667.303 23.6219C663.439 23.6219 657.998 20.2312 657.944 20.1975L657.629 20ZM657.698 20.5491C657.698 20.5491 663.256 24.0409 667.303 24.0409C667.575 24.0409 667.84 24.0265 668.097 23.9928L665.659 27.5328C665.659 27.5328 658.359 26.1457 655.58 22.702L657.698 20.5491Z" fill="#E4B7FF"/>
<path d="M514.124 173.973C513.829 173.919 506.855 172.627 504.111 169.386L504 169.255L506.327 167L506.481 167.09C506.535 167.126 511.923 170.322 515.78 170.322C516.04 170.322 516.292 170.309 516.527 170.277L517 170.219L514.269 174L514.124 173.973Z" fill="#DF5698"/>
<path d="M506.629 166L506.372 166.26L504.254 168.418L504 168.678L504.227 168.957C507.075 172.483 514.267 173.884 514.572 173.942L514.867 174L515.031 173.759L517.469 170.219L518 169.449L517.036 169.574C516.806 169.603 516.56 169.622 516.303 169.622C512.439 169.622 506.998 166.231 506.944 166.197L506.629 166ZM506.698 166.549C506.698 166.549 512.256 170.041 516.303 170.041C516.575 170.041 516.84 170.026 517.097 169.993L514.659 173.533C514.659 173.533 507.359 172.146 504.58 168.702L506.698 166.549Z" fill="#E4B7FF"/>
<path d="M751.53 185.811C751.347 185.573 747.028 179.946 747.159 175.702L747.163 175.531L750.401 175.412L750.456 175.582C750.472 175.645 752.337 181.625 755.203 184.206C755.397 184.38 755.593 184.539 755.789 184.672L756.179 184.945L751.62 185.928L751.53 185.811Z" fill="#DF5698"/>
<path d="M751.295 174.871L750.93 174.892L747.912 175.078L747.549 175.102L747.531 175.461C747.289 179.987 751.695 185.841 751.883 186.088L752.064 186.328L752.347 186.259L756.527 185.259L757.438 185.042L756.637 184.49C756.447 184.358 756.251 184.207 756.061 184.036C753.189 181.45 751.415 175.289 751.397 175.228L751.295 174.871ZM750.979 175.325C750.979 175.325 752.773 181.639 755.78 184.347C755.983 184.529 756.189 184.696 756.402 184.842L752.222 185.842C752.222 185.842 747.726 179.927 747.964 175.508L750.979 175.325Z" fill="#E4B7FF"/>
<path d="M626.53 120.811C626.347 120.573 622.028 114.946 622.159 110.702L622.163 110.531L625.401 110.412L625.456 110.582C625.472 110.645 627.337 116.625 630.203 119.206C630.397 119.38 630.593 119.539 630.789 119.672L631.179 119.945L626.62 120.928L626.53 120.811Z" fill="#DF5698"/>
<path d="M626.295 109.871L625.93 109.892L622.912 110.078L622.549 110.102L622.531 110.461C622.289 114.987 626.695 120.841 626.883 121.088L627.064 121.328L627.347 121.259L631.527 120.259L632.438 120.042L631.637 119.49C631.447 119.358 631.251 119.207 631.061 119.036C628.189 116.45 626.415 110.289 626.397 110.228L626.295 109.871ZM625.979 110.325C625.979 110.325 627.773 116.639 630.78 119.347C630.983 119.529 631.189 119.696 631.402 119.842L627.222 120.842C627.222 120.842 622.726 114.927 622.964 110.508L625.979 110.325Z" fill="#E4B7FF"/>
<path d="M408.927 6.79338C408.71 7.00058 403.565 11.8835 399.331 12.1977L399.16 12.2112L398.703 9.00296L398.866 8.93095C398.927 8.90845 404.68 6.42811 406.946 3.30836C407.1 3.0973 407.237 2.88559 407.35 2.67704L407.58 2.26016L409.034 6.69198L408.927 6.79338Z" fill="#DF5698"/>
<path d="M398.071 8.17076L398.131 8.53147L398.631 11.5131L398.692 11.8718L399.052 11.8525C403.578 11.6205 408.939 6.62591 409.165 6.41329L409.386 6.20811L409.287 5.93379L407.856 1.88111L407.545 0.998482L407.079 1.85225C406.968 2.05521 406.838 2.26571 406.688 2.47313C404.416 5.59962 398.475 8.00812 398.416 8.03242L398.071 8.17076ZM398.556 8.43785C398.556 8.43785 404.648 5.99354 407.027 2.71943C407.187 2.49923 407.331 2.27634 407.454 2.0491L408.886 6.10174C408.886 6.10174 403.473 11.1922 399.053 11.4166L398.556 8.43785Z" fill="#E4B7FF"/>
<path d="M1010.12 156.973C1009.83 156.919 1002.85 155.627 1000.11 152.386L1000 152.255L1002.33 150L1002.48 150.09C1002.54 150.126 1007.92 153.322 1011.78 153.322C1012.04 153.322 1012.29 153.309 1012.53 153.277L1013 153.219L1010.27 157L1010.12 156.973Z" fill="#5D01DC"/>
<path d="M1002.63 149L1002.37 149.26L1000.25 151.418L1000 151.678L1000.23 151.957C1003.08 155.483 1010.27 156.884 1010.57 156.942L1010.87 157L1011.03 156.759L1013.47 153.219L1014 152.449L1013.04 152.574C1012.81 152.603 1012.56 152.622 1012.3 152.622C1008.44 152.622 1003 149.231 1002.94 149.197L1002.63 149ZM1002.7 149.549C1002.7 149.549 1008.26 153.041 1012.3 153.041C1012.58 153.041 1012.84 153.026 1013.1 152.993L1010.66 156.533C1010.66 156.533 1003.36 155.146 1000.58 151.702L1002.7 149.549Z" fill="#E4B7FF"/>
<path d="M1081.68 196.899C1081.5 196.661 1077.18 191.034 1077.31 186.79L1077.31 186.619L1080.55 186.5L1080.61 186.67C1080.62 186.733 1082.49 192.713 1085.35 195.293C1085.55 195.468 1085.74 195.627 1085.94 195.76L1086.33 196.033L1081.77 197.016L1081.68 196.899Z" fill="#5D01DC"/>
<path d="M1081.45 185.959L1081.08 185.98L1078.06 186.166L1077.7 186.189L1077.68 186.549C1077.44 191.075 1081.85 196.929 1082.03 197.175L1082.21 197.416L1082.5 197.347L1086.68 196.347L1087.59 196.13L1086.79 195.578C1086.6 195.445 1086.4 195.295 1086.21 195.123C1083.34 192.538 1081.57 186.377 1081.55 186.316L1081.45 185.959ZM1081.13 186.413C1081.13 186.413 1082.92 192.727 1085.93 195.435C1086.13 195.617 1086.34 195.784 1086.55 195.93L1082.37 196.93C1082.37 196.93 1077.88 191.014 1078.11 186.595L1081.13 186.413Z" fill="#E4B7FF"/>
<path d="M960.124 54.973C959.829 54.919 952.855 53.627 950.111 50.3859L950 50.2553L952.327 48L952.481 48.09C952.535 48.126 957.923 51.3222 961.78 51.3222C962.04 51.3222 962.292 51.3087 962.527 51.2772L963 51.2186L960.269 55L960.124 54.973Z" fill="#5D01DC"/>
<path d="M952.629 47L952.372 47.2601L950.254 49.4178L950 49.6779L950.227 49.9573C953.075 53.4828 960.267 54.8844 960.572 54.9422L960.867 55L961.031 54.7592L963.469 51.2192L964 50.4485L963.036 50.5737C962.806 50.6026 962.56 50.6219 962.303 50.6219C958.439 50.6219 952.998 47.2312 952.944 47.1975L952.629 47ZM952.698 47.5491C952.698 47.5491 958.256 51.0409 962.303 51.0409C962.575 51.0409 962.84 51.0265 963.097 50.9928L960.659 54.5328C960.659 54.5328 953.359 53.1457 950.58 49.702L952.698 47.5491Z" fill="#E4B7FF"/>
<path d="M810.53 99.8111C810.347 99.5733 806.028 93.9465 806.159 89.7023L806.163 89.5307L809.401 89.4117L809.456 89.5819C809.472 89.6448 811.337 95.6252 814.203 98.2056C814.397 98.3801 814.593 98.5386 814.789 98.6724L815.179 98.9452L810.62 99.9281L810.53 99.8111Z" fill="#5D01DC"/>
<path d="M810.295 88.8707L809.93 88.8921L806.912 89.0785L806.549 89.1016L806.531 89.4609C806.289 93.9868 810.695 99.8407 810.883 100.088L811.064 100.328L811.347 100.259L815.527 99.2594L816.438 99.0421L815.637 98.4898C815.447 98.3575 815.251 98.2071 815.061 98.0355C812.189 95.4496 810.415 89.2894 810.397 89.2279L810.295 88.8707ZM809.979 89.3248C809.979 89.3248 811.773 95.6389 814.78 98.3469C814.983 98.5291 815.189 98.6957 815.402 98.8421L811.222 99.842C811.222 99.842 806.726 93.9265 806.964 89.5076L809.979 89.3248Z" fill="#E4B7FF"/>
<path d="M1207.53 91.8111C1207.35 91.5733 1203.03 85.9465 1203.16 81.7023L1203.16 81.5307L1206.4 81.4117L1206.46 81.5819C1206.47 81.6448 1208.34 87.6252 1211.2 90.2056C1211.4 90.3801 1211.59 90.5386 1211.79 90.6724L1212.18 90.9452L1207.62 91.9281L1207.53 91.8111Z" fill="#5D01DC"/>
<path d="M1207.3 80.8707L1206.93 80.8921L1203.91 81.0785L1203.55 81.1016L1203.53 81.4609C1203.29 85.9868 1207.7 91.8407 1207.88 92.0876L1208.06 92.3283L1208.35 92.2592L1212.53 91.2594L1213.44 91.0421L1212.64 90.4898C1212.45 90.3575 1212.25 90.2071 1212.06 90.0355C1209.19 87.4496 1207.41 81.2894 1207.4 81.2279L1207.3 80.8707ZM1206.98 81.3248C1206.98 81.3248 1208.77 87.6389 1211.78 90.3469C1211.98 90.5291 1212.19 90.6957 1212.4 90.8421L1208.22 91.842C1208.22 91.842 1203.73 85.9265 1203.96 81.5076L1206.98 81.3248Z" fill="#E4B7FF"/>
<path d="M1219.12 149.973C1218.83 149.919 1211.85 148.627 1209.11 145.386L1209 145.255L1211.33 143L1211.48 143.09C1211.54 143.126 1216.92 146.322 1220.78 146.322C1221.04 146.322 1221.29 146.309 1221.53 146.277L1222 146.219L1219.27 150L1219.12 149.973Z" fill="#EFF89C"/>
<path d="M1211.63 142L1211.37 142.26L1209.25 144.418L1209 144.678L1209.23 144.957C1212.08 148.483 1219.27 149.884 1219.57 149.942L1219.87 150L1220.03 149.759L1222.47 146.219L1223 145.449L1222.04 145.574C1221.81 145.603 1221.56 145.622 1221.3 145.622C1217.44 145.622 1212 142.231 1211.94 142.197L1211.63 142ZM1211.7 142.549C1211.7 142.549 1217.26 146.041 1221.3 146.041C1221.58 146.041 1221.84 146.026 1222.1 145.993L1219.66 149.533C1219.66 149.533 1212.36 148.146 1209.58 144.702L1211.7 142.549Z" fill="#E4B7FF"/>
<path d="M887.53 189.811C887.347 189.573 883.028 183.946 883.159 179.702L883.163 179.531L886.401 179.412L886.456 179.582C886.472 179.645 888.337 185.625 891.203 188.206C891.397 188.38 891.593 188.539 891.789 188.672L892.179 188.945L887.62 189.928L887.53 189.811Z" fill="#EFF89C"/>
<path d="M887.295 178.871L886.93 178.892L883.912 179.078L883.549 179.102L883.531 179.461C883.289 183.987 887.695 189.841 887.883 190.088L888.064 190.328L888.347 190.259L892.527 189.259L893.438 189.042L892.637 188.49C892.447 188.358 892.251 188.207 892.061 188.036C889.189 185.45 887.415 179.289 887.397 179.228L887.295 178.871ZM886.979 179.325C886.979 179.325 888.773 185.639 891.78 188.347C891.983 188.529 892.189 188.696 892.402 188.842L888.222 189.842C888.222 189.842 883.726 183.927 883.964 179.508L886.979 179.325Z" fill="#E4B7FF"/>
<path d="M981.53 100.811C981.347 100.573 977.028 94.9465 977.159 90.7023L977.163 90.5307L980.401 90.4117L980.456 90.5819C980.472 90.6448 982.337 96.6252 985.203 99.2056C985.397 99.3801 985.593 99.5386 985.789 99.6724L986.179 99.9452L981.62 100.928L981.53 100.811Z" fill="#EFF89C"/>
<path d="M981.295 89.8707L980.93 89.8921L977.912 90.0785L977.549 90.1016L977.531 90.4609C977.289 94.9868 981.695 100.841 981.883 101.088L982.064 101.328L982.347 101.259L986.527 100.259L987.438 100.042L986.637 99.4898C986.447 99.3575 986.251 99.2071 986.061 99.0355C983.189 96.4496 981.415 90.2894 981.397 90.2279L981.295 89.8707ZM980.979 90.3248C980.979 90.3248 982.773 96.6389 985.78 99.3469C985.983 99.5291 986.189 99.6957 986.402 99.8421L982.222 100.842C982.222 100.842 977.726 94.9265 977.964 90.5076L980.979 90.3248Z" fill="#E4B7FF"/>
<path d="M799.566 44.8079C799.381 44.5714 795.023 38.9755 795.123 34.7305L795.126 34.5589L798.364 34.4168L798.419 34.5866C798.436 34.6494 800.344 40.6164 803.228 43.1762C803.423 43.3494 803.62 43.5065 803.817 43.6388L804.209 43.9089L799.657 44.9243L799.566 44.8079Z" fill="#EFF89C"/>
<path d="M799.253 33.8753L798.889 33.8993L795.872 34.1072L795.509 34.1329L795.494 34.4924C795.283 39.0198 799.732 44.8421 799.922 45.0877L800.104 45.3272L800.387 45.256L804.56 44.2264L805.468 44.0026L804.664 43.4561C804.473 43.3251 804.276 43.1761 804.084 43.0059C801.194 40.4406 799.376 34.2932 799.357 34.2318L799.253 33.8753ZM798.94 34.3316C798.94 34.3316 800.779 40.6328 803.806 43.3193C804.01 43.5 804.218 43.6651 804.432 43.8101L800.259 44.8397C800.259 44.8397 795.72 38.9565 795.927 34.536L798.94 34.3316Z" fill="#E4B7FF"/>
<path d="M911.927 79.7934C911.71 80.0006 906.565 84.8835 902.331 85.1977L902.16 85.2112L901.703 82.003L901.866 81.9309C901.927 81.9085 907.68 79.4281 909.946 76.3084C910.1 76.0973 910.237 75.8856 910.35 75.677L910.58 75.2602L912.034 79.692L911.927 79.7934Z" fill="#EFF89C"/>
<path d="M901.071 81.1708L901.131 81.5315L901.631 84.5131L901.692 84.8718L902.052 84.8525C906.578 84.6205 911.939 79.6259 912.165 79.4133L912.386 79.2081L912.287 78.9338L910.856 74.8811L910.545 73.9985L910.079 74.8523C909.968 75.0552 909.838 75.2657 909.688 75.4731C907.416 78.5996 901.475 81.0081 901.416 81.0324L901.071 81.1708ZM901.556 81.4378C901.556 81.4378 907.648 78.9935 910.027 75.7194C910.187 75.4992 910.331 75.2763 910.454 75.0491L911.886 79.1017C911.886 79.1017 906.473 84.1922 902.053 84.4166L901.556 81.4378Z" fill="#E4B7FF"/>
<path d="M1166.12 120.973C1165.83 120.919 1158.85 119.627 1156.11 116.386L1156 116.255L1158.33 114L1158.48 114.09C1158.54 114.126 1163.92 117.322 1167.78 117.322C1168.04 117.322 1168.29 117.309 1168.53 117.277L1169 117.219L1166.27 121L1166.12 120.973Z" fill="#F99300"/>
<path d="M1158.63 113L1158.37 113.26L1156.25 115.418L1156 115.678L1156.23 115.957C1159.08 119.483 1166.27 120.884 1166.57 120.942L1166.87 121L1167.03 120.759L1169.47 117.219L1170 116.449L1169.04 116.574C1168.81 116.603 1168.56 116.622 1168.3 116.622C1164.44 116.622 1159 113.231 1158.94 113.197L1158.63 113ZM1158.7 113.549C1158.7 113.549 1164.26 117.041 1168.3 117.041C1168.58 117.041 1168.84 117.026 1169.1 116.993L1166.66 120.533C1166.66 120.533 1159.36 119.146 1156.58 115.702L1158.7 113.549Z" fill="#E4B7FF"/>
<path d="M813.124 165.973C812.829 165.919 805.855 164.627 803.111 161.386L803 161.255L805.327 159L805.481 159.09C805.535 159.126 810.923 162.322 814.78 162.322C815.04 162.322 815.292 162.309 815.527 162.277L816 162.219L813.269 166L813.124 165.973Z" fill="#F99300"/>
<path d="M805.629 158L805.372 158.26L803.254 160.418L803 160.678L803.227 160.957C806.075 164.483 813.267 165.884 813.572 165.942L813.867 166L814.031 165.759L816.469 162.219L817 161.449L816.036 161.574C815.806 161.603 815.56 161.622 815.303 161.622C811.439 161.622 805.998 158.231 805.944 158.197L805.629 158ZM805.698 158.549C805.698 158.549 811.256 162.041 815.303 162.041C815.575 162.041 815.84 162.026 816.097 161.993L813.659 165.533C813.659 165.533 806.359 164.146 803.58 160.702L805.698 158.549Z" fill="#E4B7FF"/>
<path d="M1216.12 35.973C1215.83 35.919 1208.85 34.627 1206.11 31.3859L1206 31.2553L1208.33 29L1208.48 29.09C1208.54 29.126 1213.92 32.3222 1217.78 32.3222C1218.04 32.3222 1218.29 32.3087 1218.53 32.2772L1219 32.2186L1216.27 36L1216.12 35.973Z" fill="#F99300"/>
<path d="M1208.63 28L1208.37 28.2601L1206.25 30.4178L1206 30.6779L1206.23 30.9573C1209.08 34.4828 1216.27 35.8844 1216.57 35.9422L1216.87 36L1217.03 35.7592L1219.47 32.2192L1220 31.4485L1219.04 31.5737C1218.81 31.6026 1218.56 31.6219 1218.3 31.6219C1214.44 31.6219 1209 28.2312 1208.94 28.1975L1208.63 28ZM1208.7 28.5491C1208.7 28.5491 1214.26 32.0409 1218.3 32.0409C1218.58 32.0409 1218.84 32.0265 1219.1 31.9928L1216.66 35.5328C1216.66 35.5328 1209.36 34.1457 1206.58 30.702L1208.7 28.5491Z" fill="#E4B7FF"/>
<path d="M1069.93 7.79338C1069.71 8.00058 1064.57 12.8835 1060.33 13.1977L1060.16 13.2112L1059.7 10.003L1059.87 9.93095C1059.93 9.90845 1065.68 7.42811 1067.95 4.30836C1068.1 4.0973 1068.24 3.88559 1068.35 3.67704L1068.58 3.26016L1070.03 7.69198L1069.93 7.79338Z" fill="#F99300"/>
<path d="M1059.07 9.17076L1059.13 9.53147L1059.63 12.5131L1059.69 12.8718L1060.05 12.8525C1064.58 12.6205 1069.94 7.62591 1070.17 7.41329L1070.39 7.20811L1070.29 6.93379L1068.86 2.88111L1068.54 1.99848L1068.08 2.85225C1067.97 3.05521 1067.84 3.26571 1067.69 3.47313C1065.42 6.59962 1059.48 9.00812 1059.42 9.03242L1059.07 9.17076ZM1059.56 9.43785C1059.56 9.43785 1065.65 6.99354 1068.03 3.71943C1068.19 3.49923 1068.33 3.27634 1068.45 3.0491L1069.89 7.10174C1069.89 7.10174 1064.47 12.1922 1060.05 12.4166L1059.56 9.43785Z" fill="#E4B7FF"/>
<path d="M860.124 67.973C859.829 67.919 852.855 66.627 850.111 63.3859L850 63.2553L852.327 61L852.481 61.09C852.535 61.126 857.923 64.3222 861.78 64.3222C862.04 64.3222 862.292 64.3087 862.527 64.2772L863 64.2186L860.269 68L860.124 67.973Z" fill="#DF5698"/>
<path d="M852.629 60L852.372 60.2601L850.254 62.4178L850 62.6779L850.227 62.9573C853.075 66.4828 860.267 67.8844 860.572 67.9422L860.867 68L861.031 67.7592L863.469 64.2192L864 63.4485L863.036 63.5737C862.806 63.6026 862.56 63.6219 862.303 63.6219C858.439 63.6219 852.998 60.2312 852.944 60.1975L852.629 60ZM852.698 60.5491C852.698 60.5491 858.256 64.0409 862.303 64.0409C862.575 64.0409 862.84 64.0265 863.097 63.9928L860.659 67.5328C860.659 67.5328 853.359 66.1457 850.58 62.702L852.698 60.5491Z" fill="#E4B7FF"/>
<path d="M1111.12 27.973C1110.83 27.919 1103.85 26.627 1101.11 23.3859L1101 23.2553L1103.33 21L1103.48 21.09C1103.54 21.126 1108.92 24.3222 1112.78 24.3222C1113.04 24.3222 1113.29 24.3087 1113.53 24.2772L1114 24.2186L1111.27 28L1111.12 27.973Z" fill="#DF5698"/>
<path d="M1103.63 20L1103.37 20.2601L1101.25 22.4178L1101 22.6779L1101.23 22.9573C1104.08 26.4828 1111.27 27.8844 1111.57 27.9422L1111.87 28L1112.03 27.7592L1114.47 24.2192L1115 23.4485L1114.04 23.5737C1113.81 23.6026 1113.56 23.6219 1113.3 23.6219C1109.44 23.6219 1104 20.2312 1103.94 20.1975L1103.63 20ZM1103.7 20.5491C1103.7 20.5491 1109.26 24.0409 1113.3 24.0409C1113.58 24.0409 1113.84 24.0265 1114.1 23.9928L1111.66 27.5328C1111.66 27.5328 1104.36 26.1457 1101.58 22.702L1103.7 20.5491Z" fill="#E4B7FF"/>
<path d="M960.124 173.973C959.829 173.919 952.855 172.627 950.111 169.386L950 169.255L952.327 167L952.481 167.09C952.535 167.126 957.923 170.322 961.78 170.322C962.04 170.322 962.292 170.309 962.527 170.277L963 170.219L960.269 174L960.124 173.973Z" fill="#DF5698"/>
<path d="M952.629 166L952.372 166.26L950.254 168.418L950 168.678L950.227 168.957C953.075 172.483 960.267 173.884 960.572 173.942L960.867 174L961.031 173.759L963.469 170.219L964 169.449L963.036 169.574C962.806 169.603 962.56 169.622 962.303 169.622C958.439 169.622 952.998 166.231 952.944 166.197L952.629 166ZM952.698 166.549C952.698 166.549 958.256 170.041 962.303 170.041C962.575 170.041 962.84 170.026 963.097 169.993L960.659 173.533C960.659 173.533 953.359 172.146 950.58 168.702L952.698 166.549Z" fill="#E4B7FF"/>
<path d="M1197.53 185.811C1197.35 185.573 1193.03 179.946 1193.16 175.702L1193.16 175.531L1196.4 175.412L1196.46 175.582C1196.47 175.645 1198.34 181.625 1201.2 184.206C1201.4 184.38 1201.59 184.539 1201.79 184.672L1202.18 184.945L1197.62 185.928L1197.53 185.811Z" fill="#DF5698"/>
<path d="M1197.3 174.871L1196.93 174.892L1193.91 175.078L1193.55 175.102L1193.53 175.461C1193.29 179.987 1197.7 185.841 1197.88 186.088L1198.06 186.328L1198.35 186.259L1202.53 185.259L1203.44 185.042L1202.64 184.49C1202.45 184.358 1202.25 184.207 1202.06 184.036C1199.19 181.45 1197.41 175.289 1197.4 175.228L1197.3 174.871ZM1196.98 175.325C1196.98 175.325 1198.77 181.639 1201.78 184.347C1201.98 184.529 1202.19 184.696 1202.4 184.842L1198.22 185.842C1198.22 185.842 1193.73 179.927 1193.96 175.508L1196.98 175.325Z" fill="#E4B7FF"/>
<path d="M1072.53 120.811C1072.35 120.573 1068.03 114.946 1068.16 110.702L1068.16 110.531L1071.4 110.412L1071.46 110.582C1071.47 110.645 1073.34 116.625 1076.2 119.206C1076.4 119.38 1076.59 119.539 1076.79 119.672L1077.18 119.945L1072.62 120.928L1072.53 120.811Z" fill="#DF5698"/>
<path d="M1072.3 109.871L1071.93 109.892L1068.91 110.078L1068.55 110.102L1068.53 110.461C1068.29 114.987 1072.7 120.841 1072.88 121.088L1073.06 121.328L1073.35 121.259L1077.53 120.259L1078.44 120.042L1077.64 119.49C1077.45 119.358 1077.25 119.207 1077.06 119.036C1074.19 116.45 1072.41 110.289 1072.4 110.228L1072.3 109.871ZM1071.98 110.325C1071.98 110.325 1073.77 116.639 1076.78 119.347C1076.98 119.529 1077.19 119.696 1077.4 119.842L1073.22 120.842C1073.22 120.842 1068.73 114.927 1068.96 110.508L1071.98 110.325Z" fill="#E4B7FF"/>
<path d="M854.927 6.79338C854.71 7.00058 849.565 11.8835 845.331 12.1977L845.16 12.2112L844.703 9.00296L844.866 8.93095C844.927 8.90845 850.68 6.42811 852.946 3.30836C853.1 3.0973 853.237 2.88559 853.35 2.67704L853.58 2.26016L855.034 6.69198L854.927 6.79338Z" fill="#DF5698"/>
<path d="M844.071 8.17076L844.131 8.53147L844.631 11.5131L844.692 11.8718L845.052 11.8525C849.578 11.6205 854.939 6.62591 855.165 6.41329L855.386 6.20811L855.287 5.93379L853.856 1.88111L853.545 0.998482L853.079 1.85225C852.968 2.05521 852.838 2.26571 852.688 2.47313C850.416 5.59962 844.475 8.00812 844.416 8.03242L844.071 8.17076ZM844.556 8.43785C844.556 8.43785 850.648 5.99354 853.027 2.71943C853.187 2.49923 853.331 2.27634 853.454 2.0491L854.886 6.10174C854.886 6.10174 849.473 11.1922 845.053 11.4166L844.556 8.43785Z" fill="#E4B7FF"/>
<path d="M1456.12 156.973C1455.83 156.919 1448.85 155.627 1446.11 152.386L1446 152.255L1448.33 150L1448.48 150.09C1448.54 150.126 1453.92 153.322 1457.78 153.322C1458.04 153.322 1458.29 153.309 1458.53 153.277L1459 153.219L1456.27 157L1456.12 156.973Z" fill="#5D01DC"/>
<path d="M1448.63 149L1448.37 149.26L1446.25 151.418L1446 151.678L1446.23 151.957C1449.08 155.483 1456.27 156.884 1456.57 156.942L1456.87 157L1457.03 156.759L1459.47 153.219L1460 152.449L1459.04 152.574C1458.81 152.603 1458.56 152.622 1458.3 152.622C1454.44 152.622 1449 149.231 1448.94 149.197L1448.63 149ZM1448.7 149.549C1448.7 149.549 1454.26 153.041 1458.3 153.041C1458.58 153.041 1458.84 153.026 1459.1 152.993L1456.66 156.533C1456.66 156.533 1449.36 155.146 1446.58 151.702L1448.7 149.549Z" fill="#E4B7FF"/>
<path d="M1527.68 196.899C1527.5 196.661 1523.18 191.034 1523.31 186.79L1523.31 186.619L1526.55 186.5L1526.61 186.67C1526.62 186.733 1528.49 192.713 1531.35 195.293C1531.55 195.468 1531.74 195.627 1531.94 195.76L1532.33 196.033L1527.77 197.016L1527.68 196.899Z" fill="#5D01DC"/>
<path d="M1527.45 185.959L1527.08 185.98L1524.06 186.166L1523.7 186.189L1523.68 186.549C1523.44 191.075 1527.85 196.929 1528.03 197.175L1528.21 197.416L1528.5 197.347L1532.68 196.347L1533.59 196.13L1532.79 195.578C1532.6 195.445 1532.4 195.295 1532.21 195.123C1529.34 192.538 1527.57 186.377 1527.55 186.316L1527.45 185.959ZM1527.13 186.413C1527.13 186.413 1528.92 192.727 1531.93 195.435C1532.13 195.617 1532.34 195.784 1532.55 195.93L1528.37 196.93C1528.37 196.93 1523.88 191.014 1524.11 186.595L1527.13 186.413Z" fill="#E4B7FF"/>
<path d="M1406.12 54.973C1405.83 54.919 1398.85 53.627 1396.11 50.3859L1396 50.2553L1398.33 48L1398.48 48.09C1398.54 48.126 1403.92 51.3222 1407.78 51.3222C1408.04 51.3222 1408.29 51.3087 1408.53 51.2772L1409 51.2186L1406.27 55L1406.12 54.973Z" fill="#5D01DC"/>
<path d="M1398.63 47L1398.37 47.2601L1396.25 49.4178L1396 49.6779L1396.23 49.9573C1399.08 53.4828 1406.27 54.8844 1406.57 54.9422L1406.87 55L1407.03 54.7592L1409.47 51.2192L1410 50.4485L1409.04 50.5737C1408.81 50.6026 1408.56 50.6219 1408.3 50.6219C1404.44 50.6219 1399 47.2312 1398.94 47.1975L1398.63 47ZM1398.7 47.5491C1398.7 47.5491 1404.26 51.0409 1408.3 51.0409C1408.58 51.0409 1408.84 51.0265 1409.1 50.9928L1406.66 54.5328C1406.66 54.5328 1399.36 53.1457 1396.58 49.702L1398.7 47.5491Z" fill="#E4B7FF"/>
<path d="M1256.53 99.8111C1256.35 99.5733 1252.03 93.9465 1252.16 89.7023L1252.16 89.5307L1255.4 89.4117L1255.46 89.5819C1255.47 89.6448 1257.34 95.6252 1260.2 98.2056C1260.4 98.3801 1260.59 98.5386 1260.79 98.6724L1261.18 98.9452L1256.62 99.9281L1256.53 99.8111Z" fill="#5D01DC"/>
<path d="M1256.3 88.8707L1255.93 88.8921L1252.91 89.0785L1252.55 89.1016L1252.53 89.4609C1252.29 93.9868 1256.7 99.8407 1256.88 100.088L1257.06 100.328L1257.35 100.259L1261.53 99.2594L1262.44 99.0421L1261.64 98.4898C1261.45 98.3575 1261.25 98.2071 1261.06 98.0355C1258.19 95.4496 1256.41 89.2894 1256.4 89.2279L1256.3 88.8707ZM1255.98 89.3248C1255.98 89.3248 1257.77 95.6389 1260.78 98.3469C1260.98 98.5291 1261.19 98.6957 1261.4 98.8421L1257.22 99.842C1257.22 99.842 1252.73 93.9265 1252.96 89.5076L1255.98 89.3248Z" fill="#E4B7FF"/>
<path d="M1653.53 91.8111C1653.35 91.5733 1649.03 85.9465 1649.16 81.7023L1649.16 81.5307L1652.4 81.4117L1652.46 81.5819C1652.47 81.6448 1654.34 87.6252 1657.2 90.2056C1657.4 90.3801 1657.59 90.5386 1657.79 90.6724L1658.18 90.9452L1653.62 91.9281L1653.53 91.8111Z" fill="#5D01DC"/>
<path d="M1653.3 80.8707L1652.93 80.8921L1649.91 81.0785L1649.55 81.1016L1649.53 81.4609C1649.29 85.9868 1653.7 91.8407 1653.88 92.0876L1654.06 92.3283L1654.35 92.2592L1658.53 91.2594L1659.44 91.0421L1658.64 90.4898C1658.45 90.3575 1658.25 90.2071 1658.06 90.0355C1655.19 87.4496 1653.41 81.2894 1653.4 81.2279L1653.3 80.8707ZM1652.98 81.3248C1652.98 81.3248 1654.77 87.6389 1657.78 90.3469C1657.98 90.5291 1658.19 90.6957 1658.4 90.8421L1654.22 91.842C1654.22 91.842 1649.73 85.9265 1649.96 81.5076L1652.98 81.3248Z" fill="#E4B7FF"/>
<path d="M1665.12 149.973C1664.83 149.919 1657.85 148.627 1655.11 145.386L1655 145.255L1657.33 143L1657.48 143.09C1657.54 143.126 1662.92 146.322 1666.78 146.322C1667.04 146.322 1667.29 146.309 1667.53 146.277L1668 146.219L1665.27 150L1665.12 149.973Z" fill="#EFF89C"/>
<path d="M1657.63 142L1657.37 142.26L1655.25 144.418L1655 144.678L1655.23 144.957C1658.08 148.483 1665.27 149.884 1665.57 149.942L1665.87 150L1666.03 149.759L1668.47 146.219L1669 145.449L1668.04 145.574C1667.81 145.603 1667.56 145.622 1667.3 145.622C1663.44 145.622 1658 142.231 1657.94 142.197L1657.63 142ZM1657.7 142.549C1657.7 142.549 1663.26 146.041 1667.3 146.041C1667.58 146.041 1667.84 146.026 1668.1 145.993L1665.66 149.533C1665.66 149.533 1658.36 148.146 1655.58 144.702L1657.7 142.549Z" fill="#E4B7FF"/>
<path d="M1333.53 189.811C1333.35 189.573 1329.03 183.946 1329.16 179.702L1329.16 179.531L1332.4 179.412L1332.46 179.582C1332.47 179.645 1334.34 185.625 1337.2 188.206C1337.4 188.38 1337.59 188.539 1337.79 188.672L1338.18 188.945L1333.62 189.928L1333.53 189.811Z" fill="#EFF89C"/>
<path d="M1333.3 178.871L1332.93 178.892L1329.91 179.078L1329.55 179.102L1329.53 179.461C1329.29 183.987 1333.7 189.841 1333.88 190.088L1334.06 190.328L1334.35 190.259L1338.53 189.259L1339.44 189.042L1338.64 188.49C1338.45 188.358 1338.25 188.207 1338.06 188.036C1335.19 185.45 1333.41 179.289 1333.4 179.228L1333.3 178.871ZM1332.98 179.325C1332.98 179.325 1334.77 185.639 1337.78 188.347C1337.98 188.529 1338.19 188.696 1338.4 188.842L1334.22 189.842C1334.22 189.842 1329.73 183.927 1329.96 179.508L1332.98 179.325Z" fill="#E4B7FF"/>
<path d="M1427.53 100.811C1427.35 100.573 1423.03 94.9465 1423.16 90.7023L1423.16 90.5307L1426.4 90.4117L1426.46 90.5819C1426.47 90.6448 1428.34 96.6252 1431.2 99.2056C1431.4 99.3801 1431.59 99.5386 1431.79 99.6724L1432.18 99.9452L1427.62 100.928L1427.53 100.811Z" fill="#EFF89C"/>
<path d="M1427.3 89.8707L1426.93 89.8921L1423.91 90.0785L1423.55 90.1016L1423.53 90.4609C1423.29 94.9868 1427.7 100.841 1427.88 101.088L1428.06 101.328L1428.35 101.259L1432.53 100.259L1433.44 100.042L1432.64 99.4898C1432.45 99.3575 1432.25 99.2071 1432.06 99.0355C1429.19 96.4496 1427.41 90.2894 1427.4 90.2279L1427.3 89.8707ZM1426.98 90.3248C1426.98 90.3248 1428.77 96.6389 1431.78 99.3469C1431.98 99.5291 1432.19 99.6957 1432.4 99.8421L1428.22 100.842C1428.22 100.842 1423.73 94.9265 1423.96 90.5076L1426.98 90.3248Z" fill="#E4B7FF"/>
<path d="M1245.57 44.8079C1245.38 44.5714 1241.02 38.9755 1241.12 34.7305L1241.13 34.5589L1244.36 34.4168L1244.42 34.5866C1244.44 34.6494 1246.34 40.6164 1249.23 43.1762C1249.42 43.3494 1249.62 43.5065 1249.82 43.6388L1250.21 43.9089L1245.66 44.9243L1245.57 44.8079Z" fill="#EFF89C"/>
<path d="M1245.25 33.8753L1244.89 33.8993L1241.87 34.1072L1241.51 34.1329L1241.49 34.4924C1241.28 39.0198 1245.73 44.8421 1245.92 45.0877L1246.1 45.3272L1246.39 45.256L1250.56 44.2264L1251.47 44.0026L1250.66 43.4561C1250.47 43.3251 1250.28 43.1761 1250.08 43.0059C1247.19 40.4406 1245.38 34.2932 1245.36 34.2318L1245.25 33.8753ZM1244.94 34.3316C1244.94 34.3316 1246.78 40.6328 1249.81 43.3193C1250.01 43.5 1250.22 43.6651 1250.43 43.8101L1246.26 44.8397C1246.26 44.8397 1241.72 38.9565 1241.93 34.536L1244.94 34.3316Z" fill="#E4B7FF"/>
<path d="M1357.93 79.7934C1357.71 80.0006 1352.57 84.8835 1348.33 85.1977L1348.16 85.2112L1347.7 82.003L1347.87 81.9309C1347.93 81.9085 1353.68 79.4281 1355.95 76.3084C1356.1 76.0973 1356.24 75.8856 1356.35 75.677L1356.58 75.2602L1358.03 79.692L1357.93 79.7934Z" fill="#EFF89C"/>
<path d="M1347.07 81.1708L1347.13 81.5315L1347.63 84.5131L1347.69 84.8718L1348.05 84.8525C1352.58 84.6205 1357.94 79.6259 1358.17 79.4133L1358.39 79.2081L1358.29 78.9338L1356.86 74.8811L1356.54 73.9985L1356.08 74.8523C1355.97 75.0552 1355.84 75.2657 1355.69 75.4731C1353.42 78.5996 1347.48 81.0081 1347.42 81.0324L1347.07 81.1708ZM1347.56 81.4378C1347.56 81.4378 1353.65 78.9935 1356.03 75.7194C1356.19 75.4992 1356.33 75.2763 1356.45 75.0491L1357.89 79.1017C1357.89 79.1017 1352.47 84.1922 1348.05 84.4166L1347.56 81.4378Z" fill="#E4B7FF"/>
<path d="M1612.12 120.973C1611.83 120.919 1604.85 119.627 1602.11 116.386L1602 116.255L1604.33 114L1604.48 114.09C1604.54 114.126 1609.92 117.322 1613.78 117.322C1614.04 117.322 1614.29 117.309 1614.53 117.277L1615 117.219L1612.27 121L1612.12 120.973Z" fill="#F99300"/>
<path d="M1604.63 113L1604.37 113.26L1602.25 115.418L1602 115.678L1602.23 115.957C1605.08 119.483 1612.27 120.884 1612.57 120.942L1612.87 121L1613.03 120.759L1615.47 117.219L1616 116.449L1615.04 116.574C1614.81 116.603 1614.56 116.622 1614.3 116.622C1610.44 116.622 1605 113.231 1604.94 113.197L1604.63 113ZM1604.7 113.549C1604.7 113.549 1610.26 117.041 1614.3 117.041C1614.58 117.041 1614.84 117.026 1615.1 116.993L1612.66 120.533C1612.66 120.533 1605.36 119.146 1602.58 115.702L1604.7 113.549Z" fill="#E4B7FF"/>
<path d="M1259.12 165.973C1258.83 165.919 1251.85 164.627 1249.11 161.386L1249 161.255L1251.33 159L1251.48 159.09C1251.54 159.126 1256.92 162.322 1260.78 162.322C1261.04 162.322 1261.29 162.309 1261.53 162.277L1262 162.219L1259.27 166L1259.12 165.973Z" fill="#F99300"/>
<path d="M1251.63 158L1251.37 158.26L1249.25 160.418L1249 160.678L1249.23 160.957C1252.08 164.483 1259.27 165.884 1259.57 165.942L1259.87 166L1260.03 165.759L1262.47 162.219L1263 161.449L1262.04 161.574C1261.81 161.603 1261.56 161.622 1261.3 161.622C1257.44 161.622 1252 158.231 1251.94 158.197L1251.63 158ZM1251.7 158.549C1251.7 158.549 1257.26 162.041 1261.3 162.041C1261.58 162.041 1261.84 162.026 1262.1 161.993L1259.66 165.533C1259.66 165.533 1252.36 164.146 1249.58 160.702L1251.7 158.549Z" fill="#E4B7FF"/>
<path d="M1662.12 35.973C1661.83 35.919 1654.85 34.627 1652.11 31.3859L1652 31.2553L1654.33 29L1654.48 29.09C1654.54 29.126 1659.92 32.3222 1663.78 32.3222C1664.04 32.3222 1664.29 32.3087 1664.53 32.2772L1665 32.2186L1662.27 36L1662.12 35.973Z" fill="#F99300"/>
<path d="M1654.63 28L1654.37 28.2601L1652.25 30.4178L1652 30.6779L1652.23 30.9573C1655.08 34.4828 1662.27 35.8844 1662.57 35.9422L1662.87 36L1663.03 35.7592L1665.47 32.2192L1666 31.4485L1665.04 31.5737C1664.81 31.6026 1664.56 31.6219 1664.3 31.6219C1660.44 31.6219 1655 28.2312 1654.94 28.1975L1654.63 28ZM1654.7 28.5491C1654.7 28.5491 1660.26 32.0409 1664.3 32.0409C1664.58 32.0409 1664.84 32.0265 1665.1 31.9928L1662.66 35.5328C1662.66 35.5328 1655.36 34.1457 1652.58 30.702L1654.7 28.5491Z" fill="#E4B7FF"/>
<path d="M1515.93 7.79338C1515.71 8.00058 1510.57 12.8835 1506.33 13.1977L1506.16 13.2112L1505.7 10.003L1505.87 9.93095C1505.93 9.90845 1511.68 7.42811 1513.95 4.30836C1514.1 4.0973 1514.24 3.88559 1514.35 3.67704L1514.58 3.26016L1516.03 7.69198L1515.93 7.79338Z" fill="#F99300"/>
<path d="M1505.07 9.17076L1505.13 9.53147L1505.63 12.5131L1505.69 12.8718L1506.05 12.8525C1510.58 12.6205 1515.94 7.62591 1516.17 7.41329L1516.39 7.20811L1516.29 6.93379L1514.86 2.88111L1514.54 1.99848L1514.08 2.85225C1513.97 3.05521 1513.84 3.26571 1513.69 3.47313C1511.42 6.59962 1505.48 9.00812 1505.42 9.03242L1505.07 9.17076ZM1505.56 9.43785C1505.56 9.43785 1511.65 6.99354 1514.03 3.71943C1514.19 3.49923 1514.33 3.27634 1514.45 3.0491L1515.89 7.10174C1515.89 7.10174 1510.47 12.1922 1506.05 12.4166L1505.56 9.43785Z" fill="#E4B7FF"/>
<path d="M1306.12 67.973C1305.83 67.919 1298.85 66.627 1296.11 63.3859L1296 63.2553L1298.33 61L1298.48 61.09C1298.54 61.126 1303.92 64.3222 1307.78 64.3222C1308.04 64.3222 1308.29 64.3087 1308.53 64.2772L1309 64.2186L1306.27 68L1306.12 67.973Z" fill="#DF5698"/>
<path d="M1298.63 60L1298.37 60.2601L1296.25 62.4178L1296 62.6779L1296.23 62.9573C1299.08 66.4828 1306.27 67.8844 1306.57 67.9422L1306.87 68L1307.03 67.7592L1309.47 64.2192L1310 63.4485L1309.04 63.5737C1308.81 63.6026 1308.56 63.6219 1308.3 63.6219C1304.44 63.6219 1299 60.2312 1298.94 60.1975L1298.63 60ZM1298.7 60.5491C1298.7 60.5491 1304.26 64.0409 1308.3 64.0409C1308.58 64.0409 1308.84 64.0265 1309.1 63.9928L1306.66 67.5328C1306.66 67.5328 1299.36 66.1457 1296.58 62.702L1298.7 60.5491Z" fill="#E4B7FF"/>
<path d="M1557.12 27.973C1556.83 27.919 1549.85 26.627 1547.11 23.3859L1547 23.2553L1549.33 21L1549.48 21.09C1549.54 21.126 1554.92 24.3222 1558.78 24.3222C1559.04 24.3222 1559.29 24.3087 1559.53 24.2772L1560 24.2186L1557.27 28L1557.12 27.973Z" fill="#DF5698"/>
<path d="M1549.63 20L1549.37 20.2601L1547.25 22.4178L1547 22.6779L1547.23 22.9573C1550.08 26.4828 1557.27 27.8844 1557.57 27.9422L1557.87 28L1558.03 27.7592L1560.47 24.2192L1561 23.4485L1560.04 23.5737C1559.81 23.6026 1559.56 23.6219 1559.3 23.6219C1555.44 23.6219 1550 20.2312 1549.94 20.1975L1549.63 20ZM1549.7 20.5491C1549.7 20.5491 1555.26 24.0409 1559.3 24.0409C1559.58 24.0409 1559.84 24.0265 1560.1 23.9928L1557.66 27.5328C1557.66 27.5328 1550.36 26.1457 1547.58 22.702L1549.7 20.5491Z" fill="#E4B7FF"/>
<path d="M1406.12 173.973C1405.83 173.919 1398.85 172.627 1396.11 169.386L1396 169.255L1398.33 167L1398.48 167.09C1398.54 167.126 1403.92 170.322 1407.78 170.322C1408.04 170.322 1408.29 170.309 1408.53 170.277L1409 170.219L1406.27 174L1406.12 173.973Z" fill="#DF5698"/>
<path d="M1398.63 166L1398.37 166.26L1396.25 168.418L1396 168.678L1396.23 168.957C1399.08 172.483 1406.27 173.884 1406.57 173.942L1406.87 174L1407.03 173.759L1409.47 170.219L1410 169.449L1409.04 169.574C1408.81 169.603 1408.56 169.622 1408.3 169.622C1404.44 169.622 1399 166.231 1398.94 166.197L1398.63 166ZM1398.7 166.549C1398.7 166.549 1404.26 170.041 1408.3 170.041C1408.58 170.041 1408.84 170.026 1409.1 169.993L1406.66 173.533C1406.66 173.533 1399.36 172.146 1396.58 168.702L1398.7 166.549Z" fill="#E4B7FF"/>
<path d="M1643.53 185.811C1643.35 185.573 1639.03 179.946 1639.16 175.702L1639.16 175.531L1642.4 175.412L1642.46 175.582C1642.47 175.645 1644.34 181.625 1647.2 184.206C1647.4 184.38 1647.59 184.539 1647.79 184.672L1648.18 184.945L1643.62 185.928L1643.53 185.811Z" fill="#DF5698"/>
<path d="M1643.3 174.871L1642.93 174.892L1639.91 175.078L1639.55 175.102L1639.53 175.461C1639.29 179.987 1643.7 185.841 1643.88 186.088L1644.06 186.328L1644.35 186.259L1648.53 185.259L1649.44 185.042L1648.64 184.49C1648.45 184.358 1648.25 184.207 1648.06 184.036C1645.19 181.45 1643.41 175.289 1643.4 175.228L1643.3 174.871ZM1642.98 175.325C1642.98 175.325 1644.77 181.639 1647.78 184.347C1647.98 184.529 1648.19 184.696 1648.4 184.842L1644.22 185.842C1644.22 185.842 1639.73 179.927 1639.96 175.508L1642.98 175.325Z" fill="#E4B7FF"/>
<path d="M1518.53 120.811C1518.35 120.573 1514.03 114.946 1514.16 110.702L1514.16 110.531L1517.4 110.412L1517.46 110.582C1517.47 110.645 1519.34 116.625 1522.2 119.206C1522.4 119.38 1522.59 119.539 1522.79 119.672L1523.18 119.945L1518.62 120.928L1518.53 120.811Z" fill="#DF5698"/>
<path d="M1518.3 109.871L1517.93 109.892L1514.91 110.078L1514.55 110.102L1514.53 110.461C1514.29 114.987 1518.7 120.841 1518.88 121.088L1519.06 121.328L1519.35 121.259L1523.53 120.259L1524.44 120.042L1523.64 119.49C1523.45 119.358 1523.25 119.207 1523.06 119.036C1520.19 116.45 1518.41 110.289 1518.4 110.228L1518.3 109.871ZM1517.98 110.325C1517.98 110.325 1519.77 116.639 1522.78 119.347C1522.98 119.529 1523.19 119.696 1523.4 119.842L1519.22 120.842C1519.22 120.842 1514.73 114.927 1514.96 110.508L1517.98 110.325Z" fill="#E4B7FF"/>
<path d="M1300.93 6.79338C1300.71 7.00058 1295.57 11.8835 1291.33 12.1977L1291.16 12.2112L1290.7 9.00296L1290.87 8.93095C1290.93 8.90845 1296.68 6.42811 1298.95 3.30836C1299.1 3.0973 1299.24 2.88559 1299.35 2.67704L1299.58 2.26016L1301.03 6.69198L1300.93 6.79338Z" fill="#DF5698"/>
<path d="M1290.07 8.17076L1290.13 8.53147L1290.63 11.5131L1290.69 11.8718L1291.05 11.8525C1295.58 11.6205 1300.94 6.62591 1301.17 6.41329L1301.39 6.20811L1301.29 5.93379L1299.86 1.88111L1299.54 0.998482L1299.08 1.85225C1298.97 2.05521 1298.84 2.26571 1298.69 2.47313C1296.42 5.59962 1290.48 8.00812 1290.42 8.03242L1290.07 8.17076ZM1290.56 8.43785C1290.56 8.43785 1296.65 5.99354 1299.03 2.71943C1299.19 2.49923 1299.33 2.27634 1299.45 2.0491L1300.89 6.10174C1300.89 6.10174 1295.47 11.1922 1291.05 11.4166L1290.56 8.43785Z" fill="#E4B7FF"/>
<path d="M1902.12 156.973C1901.83 156.919 1894.85 155.627 1892.11 152.386L1892 152.255L1894.33 150L1894.48 150.09C1894.54 150.126 1899.92 153.322 1903.78 153.322C1904.04 153.322 1904.29 153.309 1904.53 153.277L1905 153.219L1902.27 157L1902.12 156.973Z" fill="#5D01DC"/>
<path d="M1894.63 149L1894.37 149.26L1892.25 151.418L1892 151.678L1892.23 151.957C1895.08 155.483 1902.27 156.884 1902.57 156.942L1902.87 157L1903.03 156.759L1905.47 153.219L1906 152.449L1905.04 152.574C1904.81 152.603 1904.56 152.622 1904.3 152.622C1900.44 152.622 1895 149.231 1894.94 149.197L1894.63 149ZM1894.7 149.549C1894.7 149.549 1900.26 153.041 1904.3 153.041C1904.58 153.041 1904.84 153.026 1905.1 152.993L1902.66 156.533C1902.66 156.533 1895.36 155.146 1892.58 151.702L1894.7 149.549Z" fill="#E4B7FF"/>
<path d="M1973.68 196.899C1973.5 196.661 1969.18 191.034 1969.31 186.79L1969.31 186.619L1972.55 186.5L1972.61 186.67C1972.62 186.733 1974.49 192.713 1977.35 195.293C1977.55 195.468 1977.74 195.627 1977.94 195.76L1978.33 196.033L1973.77 197.016L1973.68 196.899Z" fill="#5D01DC"/>
<path d="M1973.45 185.959L1973.08 185.98L1970.06 186.166L1969.7 186.189L1969.68 186.549C1969.44 191.075 1973.85 196.929 1974.03 197.175L1974.21 197.416L1974.5 197.347L1978.68 196.347L1979.59 196.13L1978.79 195.578C1978.6 195.445 1978.4 195.295 1978.21 195.123C1975.34 192.538 1973.57 186.377 1973.55 186.316L1973.45 185.959ZM1973.13 186.413C1973.13 186.413 1974.92 192.727 1977.93 195.435C1978.13 195.617 1978.34 195.784 1978.55 195.93L1974.37 196.93C1974.37 196.93 1969.88 191.014 1970.11 186.595L1973.13 186.413Z" fill="#E4B7FF"/>
<path d="M1852.12 54.973C1851.83 54.919 1844.85 53.627 1842.11 50.3859L1842 50.2553L1844.33 48L1844.48 48.09C1844.54 48.126 1849.92 51.3222 1853.78 51.3222C1854.04 51.3222 1854.29 51.3087 1854.53 51.2772L1855 51.2186L1852.27 55L1852.12 54.973Z" fill="#5D01DC"/>
<path d="M1844.63 47L1844.37 47.2601L1842.25 49.4178L1842 49.6779L1842.23 49.9573C1845.08 53.4828 1852.27 54.8844 1852.57 54.9422L1852.87 55L1853.03 54.7592L1855.47 51.2192L1856 50.4485L1855.04 50.5737C1854.81 50.6026 1854.56 50.6219 1854.3 50.6219C1850.44 50.6219 1845 47.2312 1844.94 47.1975L1844.63 47ZM1844.7 47.5491C1844.7 47.5491 1850.26 51.0409 1854.3 51.0409C1854.58 51.0409 1854.84 51.0265 1855.1 50.9928L1852.66 54.5328C1852.66 54.5328 1845.36 53.1457 1842.58 49.702L1844.7 47.5491Z" fill="#E4B7FF"/>
<path d="M1702.53 99.8111C1702.35 99.5733 1698.03 93.9465 1698.16 89.7023L1698.16 89.5307L1701.4 89.4117L1701.46 89.5819C1701.47 89.6448 1703.34 95.6252 1706.2 98.2056C1706.4 98.3801 1706.59 98.5386 1706.79 98.6724L1707.18 98.9452L1702.62 99.9281L1702.53 99.8111Z" fill="#5D01DC"/>
<path d="M1702.3 88.8707L1701.93 88.8921L1698.91 89.0785L1698.55 89.1016L1698.53 89.4609C1698.29 93.9868 1702.7 99.8407 1702.88 100.088L1703.06 100.328L1703.35 100.259L1707.53 99.2594L1708.44 99.0421L1707.64 98.4898C1707.45 98.3575 1707.25 98.2071 1707.06 98.0355C1704.19 95.4496 1702.41 89.2894 1702.4 89.2279L1702.3 88.8707ZM1701.98 89.3248C1701.98 89.3248 1703.77 95.6389 1706.78 98.3469C1706.98 98.5291 1707.19 98.6957 1707.4 98.8421L1703.22 99.842C1703.22 99.842 1698.73 93.9265 1698.96 89.5076L1701.98 89.3248Z" fill="#E4B7FF"/>
<path d="M1779.53 189.811C1779.35 189.573 1775.03 183.946 1775.16 179.702L1775.16 179.531L1778.4 179.412L1778.46 179.582C1778.47 179.645 1780.34 185.625 1783.2 188.206C1783.4 188.38 1783.59 188.539 1783.79 188.672L1784.18 188.945L1779.62 189.928L1779.53 189.811Z" fill="#EFF89C"/>
<path d="M1779.3 178.871L1778.93 178.892L1775.91 179.078L1775.55 179.102L1775.53 179.461C1775.29 183.987 1779.7 189.841 1779.88 190.088L1780.06 190.328L1780.35 190.259L1784.53 189.259L1785.44 189.042L1784.64 188.49C1784.45 188.358 1784.25 188.207 1784.06 188.036C1781.19 185.45 1779.41 179.289 1779.4 179.228L1779.3 178.871ZM1778.98 179.325C1778.98 179.325 1780.77 185.639 1783.78 188.347C1783.98 188.529 1784.19 188.696 1784.4 188.842L1780.22 189.842C1780.22 189.842 1775.73 183.927 1775.96 179.508L1778.98 179.325Z" fill="#E4B7FF"/>
<path d="M1873.53 100.811C1873.35 100.573 1869.03 94.9465 1869.16 90.7023L1869.16 90.5307L1872.4 90.4117L1872.46 90.5819C1872.47 90.6448 1874.34 96.6252 1877.2 99.2056C1877.4 99.3801 1877.59 99.5386 1877.79 99.6724L1878.18 99.9452L1873.62 100.928L1873.53 100.811Z" fill="#EFF89C"/>
<path d="M1873.3 89.8707L1872.93 89.8921L1869.91 90.0785L1869.55 90.1016L1869.53 90.4609C1869.29 94.9868 1873.7 100.841 1873.88 101.088L1874.06 101.328L1874.35 101.259L1878.53 100.259L1879.44 100.042L1878.64 99.4898C1878.45 99.3575 1878.25 99.2071 1878.06 99.0355C1875.19 96.4496 1873.41 90.2894 1873.4 90.2279L1873.3 89.8707ZM1872.98 90.3248C1872.98 90.3248 1874.77 96.6389 1877.78 99.3469C1877.98 99.5291 1878.19 99.6957 1878.4 99.8421L1874.22 100.842C1874.22 100.842 1869.73 94.9265 1869.96 90.5076L1872.98 90.3248Z" fill="#E4B7FF"/>
<path d="M1691.57 44.8079C1691.38 44.5714 1687.02 38.9755 1687.12 34.7305L1687.13 34.5589L1690.36 34.4168L1690.42 34.5866C1690.44 34.6494 1692.34 40.6164 1695.23 43.1762C1695.42 43.3494 1695.62 43.5065 1695.82 43.6388L1696.21 43.9089L1691.66 44.9243L1691.57 44.8079Z" fill="#EFF89C"/>
<path d="M1691.25 33.8753L1690.89 33.8993L1687.87 34.1072L1687.51 34.1329L1687.49 34.4924C1687.28 39.0198 1691.73 44.8421 1691.92 45.0877L1692.1 45.3272L1692.39 45.256L1696.56 44.2264L1697.47 44.0026L1696.66 43.4561C1696.47 43.3251 1696.28 43.1761 1696.08 43.0059C1693.19 40.4406 1691.38 34.2932 1691.36 34.2318L1691.25 33.8753ZM1690.94 34.3316C1690.94 34.3316 1692.78 40.6328 1695.81 43.3193C1696.01 43.5 1696.22 43.6651 1696.43 43.8101L1692.26 44.8397C1692.26 44.8397 1687.72 38.9565 1687.93 34.536L1690.94 34.3316Z" fill="#E4B7FF"/>
<path d="M1803.93 79.7934C1803.71 80.0006 1798.57 84.8835 1794.33 85.1977L1794.16 85.2112L1793.7 82.003L1793.87 81.9309C1793.93 81.9085 1799.68 79.4281 1801.95 76.3084C1802.1 76.0973 1802.24 75.8856 1802.35 75.677L1802.58 75.2602L1804.03 79.692L1803.93 79.7934Z" fill="#EFF89C"/>
<path d="M1793.07 81.1708L1793.13 81.5315L1793.63 84.5131L1793.69 84.8718L1794.05 84.8525C1798.58 84.6205 1803.94 79.6259 1804.17 79.4133L1804.39 79.2081L1804.29 78.9338L1802.86 74.8811L1802.54 73.9985L1802.08 74.8523C1801.97 75.0552 1801.84 75.2657 1801.69 75.4731C1799.42 78.5996 1793.48 81.0081 1793.42 81.0324L1793.07 81.1708ZM1793.56 81.4378C1793.56 81.4378 1799.65 78.9935 1802.03 75.7194C1802.19 75.4992 1802.33 75.2763 1802.45 75.0491L1803.89 79.1017C1803.89 79.1017 1798.47 84.1922 1794.05 84.4166L1793.56 81.4378Z" fill="#E4B7FF"/>
<path d="M1705.12 165.973C1704.83 165.919 1697.85 164.627 1695.11 161.386L1695 161.255L1697.33 159L1697.48 159.09C1697.54 159.126 1702.92 162.322 1706.78 162.322C1707.04 162.322 1707.29 162.309 1707.53 162.277L1708 162.219L1705.27 166L1705.12 165.973Z" fill="#F99300"/>
<path d="M1697.63 158L1697.37 158.26L1695.25 160.418L1695 160.678L1695.23 160.957C1698.08 164.483 1705.27 165.884 1705.57 165.942L1705.87 166L1706.03 165.759L1708.47 162.219L1709 161.449L1708.04 161.574C1707.81 161.603 1707.56 161.622 1707.3 161.622C1703.44 161.622 1698 158.231 1697.94 158.197L1697.63 158ZM1697.7 158.549C1697.7 158.549 1703.26 162.041 1707.3 162.041C1707.58 162.041 1707.84 162.026 1708.1 161.993L1705.66 165.533C1705.66 165.533 1698.36 164.146 1695.58 160.702L1697.7 158.549Z" fill="#E4B7FF"/>
<path d="M1961.93 7.79338C1961.71 8.00058 1956.57 12.8835 1952.33 13.1977L1952.16 13.2112L1951.7 10.003L1951.87 9.93095C1951.93 9.90845 1957.68 7.42811 1959.95 4.30836C1960.1 4.0973 1960.24 3.88559 1960.35 3.67704L1960.58 3.26016L1962.03 7.69198L1961.93 7.79338Z" fill="#F99300"/>
<path d="M1951.07 9.17076L1951.13 9.53147L1951.63 12.5131L1951.69 12.8718L1952.05 12.8525C1956.58 12.6205 1961.94 7.62591 1962.17 7.41329L1962.39 7.20811L1962.29 6.93379L1960.86 2.88111L1960.54 1.99848L1960.08 2.85225C1959.97 3.05521 1959.84 3.26571 1959.69 3.47313C1957.42 6.59962 1951.48 9.00812 1951.42 9.03242L1951.07 9.17076ZM1951.56 9.43785C1951.56 9.43785 1957.65 6.99354 1960.03 3.71943C1960.19 3.49923 1960.33 3.27634 1960.45 3.0491L1961.89 7.10174C1961.89 7.10174 1956.47 12.1922 1952.05 12.4166L1951.56 9.43785Z" fill="#E4B7FF"/>
<path d="M1752.12 67.973C1751.83 67.919 1744.85 66.627 1742.11 63.3859L1742 63.2553L1744.33 61L1744.48 61.09C1744.54 61.126 1749.92 64.3222 1753.78 64.3222C1754.04 64.3222 1754.29 64.3087 1754.53 64.2772L1755 64.2186L1752.27 68L1752.12 67.973Z" fill="#DF5698"/>
<path d="M1744.63 60L1744.37 60.2601L1742.25 62.4178L1742 62.6779L1742.23 62.9573C1745.08 66.4828 1752.27 67.8844 1752.57 67.9422L1752.87 68L1753.03 67.7592L1755.47 64.2192L1756 63.4485L1755.04 63.5737C1754.81 63.6026 1754.56 63.6219 1754.3 63.6219C1750.44 63.6219 1745 60.2312 1744.94 60.1975L1744.63 60ZM1744.7 60.5491C1744.7 60.5491 1750.26 64.0409 1754.3 64.0409C1754.58 64.0409 1754.84 64.0265 1755.1 63.9928L1752.66 67.5328C1752.66 67.5328 1745.36 66.1457 1742.58 62.702L1744.7 60.5491Z" fill="#E4B7FF"/>
<path d="M2003.12 27.973C2002.83 27.919 1995.85 26.627 1993.11 23.3859L1993 23.2553L1995.33 21L1995.48 21.09C1995.54 21.126 2000.92 24.3222 2004.78 24.3222C2005.04 24.3222 2005.29 24.3087 2005.53 24.2772L2006 24.2186L2003.27 28L2003.12 27.973Z" fill="#DF5698"/>
<path d="M1995.63 20L1995.37 20.2601L1993.25 22.4178L1993 22.6779L1993.23 22.9573C1996.08 26.4828 2003.27 27.8844 2003.57 27.9422L2003.87 28L2004.03 27.7592L2006.47 24.2192L2007 23.4485L2006.04 23.5737C2005.81 23.6026 2005.56 23.6219 2005.3 23.6219C2001.44 23.6219 1996 20.2312 1995.94 20.1975L1995.63 20ZM1995.7 20.5491C1995.7 20.5491 2001.26 24.0409 2005.3 24.0409C2005.58 24.0409 2005.84 24.0265 2006.1 23.9928L2003.66 27.5328C2003.66 27.5328 1996.36 26.1457 1993.58 22.702L1995.7 20.5491Z" fill="#E4B7FF"/>
<path d="M1852.12 173.973C1851.83 173.919 1844.85 172.627 1842.11 169.386L1842 169.255L1844.33 167L1844.48 167.09C1844.54 167.126 1849.92 170.322 1853.78 170.322C1854.04 170.322 1854.29 170.309 1854.53 170.277L1855 170.219L1852.27 174L1852.12 173.973Z" fill="#DF5698"/>
<path d="M1844.63 166L1844.37 166.26L1842.25 168.418L1842 168.678L1842.23 168.957C1845.08 172.483 1852.27 173.884 1852.57 173.942L1852.87 174L1853.03 173.759L1855.47 170.219L1856 169.449L1855.04 169.574C1854.81 169.603 1854.56 169.622 1854.3 169.622C1850.44 169.622 1845 166.231 1844.94 166.197L1844.63 166ZM1844.7 166.549C1844.7 166.549 1850.26 170.041 1854.3 170.041C1854.58 170.041 1854.84 170.026 1855.1 169.993L1852.66 173.533C1852.66 173.533 1845.36 172.146 1842.58 168.702L1844.7 166.549Z" fill="#E4B7FF"/>
<path d="M1964.53 120.811C1964.35 120.573 1960.03 114.946 1960.16 110.702L1960.16 110.531L1963.4 110.412L1963.46 110.582C1963.47 110.645 1965.34 116.625 1968.2 119.206C1968.4 119.38 1968.59 119.539 1968.79 119.672L1969.18 119.945L1964.62 120.928L1964.53 120.811Z" fill="#DF5698"/>
<path d="M1964.3 109.871L1963.93 109.892L1960.91 110.078L1960.55 110.102L1960.53 110.461C1960.29 114.987 1964.7 120.841 1964.88 121.088L1965.06 121.328L1965.35 121.259L1969.53 120.259L1970.44 120.042L1969.64 119.49C1969.45 119.358 1969.25 119.207 1969.06 119.036C1966.19 116.45 1964.41 110.289 1964.4 110.228L1964.3 109.871ZM1963.98 110.325C1963.98 110.325 1965.77 116.639 1968.78 119.347C1968.98 119.529 1969.19 119.696 1969.4 119.842L1965.22 120.842C1965.22 120.842 1960.73 114.927 1960.96 110.508L1963.98 110.325Z" fill="#E4B7FF"/>
<path d="M1746.93 6.79338C1746.71 7.00058 1741.57 11.8835 1737.33 12.1977L1737.16 12.2112L1736.7 9.00296L1736.87 8.93095C1736.93 8.90845 1742.68 6.42811 1744.95 3.30836C1745.1 3.0973 1745.24 2.88559 1745.35 2.67704L1745.58 2.26016L1747.03 6.69198L1746.93 6.79338Z" fill="#DF5698"/>
<path d="M1736.07 8.17076L1736.13 8.53147L1736.63 11.5131L1736.69 11.8718L1737.05 11.8525C1741.58 11.6205 1746.94 6.62591 1747.17 6.41329L1747.39 6.20811L1747.29 5.93379L1745.86 1.88111L1745.54 0.998482L1745.08 1.85225C1744.97 2.05521 1744.84 2.26571 1744.69 2.47313C1742.42 5.59962 1736.48 8.00812 1736.42 8.03242L1736.07 8.17076ZM1736.56 8.43785C1736.56 8.43785 1742.65 5.99354 1745.03 2.71943C1745.19 2.49923 1745.33 2.27634 1745.45 2.0491L1746.89 6.10174C1746.89 6.10174 1741.47 11.1922 1737.05 11.4166L1736.56 8.43785Z" fill="#E4B7FF"/>
<path d="M118.124 156.973C117.829 156.919 110.855 155.627 108.111 152.386L108 152.255L110.327 150L110.481 150.09C110.535 150.126 115.923 153.322 119.78 153.322C120.04 153.322 120.292 153.309 120.527 153.277L121 153.219L118.269 157L118.124 156.973Z" fill="#5D01DC"/>
<path d="M110.629 149L110.372 149.26L108.254 151.418L108 151.678L108.227 151.957C111.075 155.483 118.267 156.884 118.572 156.942L118.867 157L119.031 156.759L121.469 153.219L122 152.449L121.036 152.574C120.806 152.603 120.56 152.622 120.303 152.622C116.439 152.622 110.998 149.231 110.944 149.197L110.629 149ZM110.698 149.549C110.698 149.549 116.256 153.041 120.303 153.041C120.575 153.041 120.84 153.026 121.097 152.993L118.659 156.533C118.659 156.533 111.359 155.146 108.58 151.702L110.698 149.549Z" fill="#E4B7FF"/>
<path d="M189.681 196.899C189.497 196.661 185.179 191.034 185.309 186.79L185.313 186.619L188.552 186.5L188.606 186.67C188.622 186.733 190.488 192.713 193.354 195.293C193.547 195.468 193.744 195.627 193.939 195.76L194.33 196.033L189.77 197.016L189.681 196.899Z" fill="#5D01DC"/>
<path d="M189.445 185.959L189.081 185.98L186.063 186.166L185.7 186.189L185.681 186.549C185.439 191.075 189.846 196.929 190.034 197.175L190.215 197.416L190.498 197.347L194.678 196.347L195.588 196.13L194.788 195.578C194.598 195.445 194.402 195.295 194.211 195.123C191.339 192.538 189.565 186.377 189.547 186.316L189.445 185.959ZM189.129 186.413C189.129 186.413 190.923 192.727 193.931 195.435C194.133 195.617 194.34 195.784 194.553 195.93L190.373 196.93C190.373 196.93 185.876 191.014 186.115 186.595L189.129 186.413Z" fill="#E4B7FF"/>
<path d="M68.1243 54.973C67.829 54.919 60.8547 53.627 58.1115 50.3859L58 50.2553L60.327 48L60.4814 48.09C60.5353 48.126 65.9233 51.3222 69.7796 51.3222C70.0404 51.3222 70.2923 51.3087 70.5272 51.2772L71 51.2186L68.2693 55L68.1243 54.973Z" fill="#5D01DC"/>
<path d="M60.6291 47L60.3722 47.2601L58.2543 49.4178L58 49.6779L58.2268 49.9573C61.075 53.4828 68.267 54.8844 68.5718 54.9422L68.8674 55L69.0315 54.7592L71.4689 51.2192L72 50.4485L71.0356 50.5737C70.8058 50.6026 70.5596 50.6219 70.3032 50.6219C66.4386 50.6219 60.9981 47.2312 60.9436 47.1975L60.6291 47ZM60.6979 47.5491C60.6979 47.5491 66.2562 51.0409 70.3032 51.0409C70.5754 51.0409 70.8404 51.0265 71.0968 50.9928L68.6594 54.5328C68.6594 54.5328 61.3595 53.1457 58.5801 49.702L60.6979 47.5491Z" fill="#E4B7FF"/>
<path d="M315.53 91.8111C315.347 91.5733 311.028 85.9465 311.159 81.7023L311.163 81.5307L314.401 81.4117L314.456 81.5819C314.472 81.6448 316.337 87.6252 319.203 90.2056C319.397 90.3801 319.593 90.5386 319.789 90.6724L320.179 90.9452L315.62 91.9281L315.53 91.8111Z" fill="#5D01DC"/>
<path d="M315.295 80.8707L314.93 80.8921L311.912 81.0785L311.549 81.1016L311.531 81.4609C311.289 85.9868 315.695 91.8407 315.883 92.0876L316.064 92.3283L316.347 92.2592L320.527 91.2594L321.438 91.0421L320.637 90.4898C320.447 90.3575 320.251 90.2071 320.061 90.0355C317.189 87.4496 315.415 81.2894 315.397 81.2279L315.295 80.8707ZM314.979 81.3248C314.979 81.3248 316.773 87.6389 319.78 90.3469C319.983 90.5291 320.189 90.6957 320.402 90.8421L316.222 91.842C316.222 91.842 311.726 85.9265 311.964 81.5076L314.979 81.3248Z" fill="#E4B7FF"/>
<path d="M327.124 149.973C326.829 149.919 319.855 148.627 317.111 145.386L317 145.255L319.327 143L319.481 143.09C319.535 143.126 324.923 146.322 328.78 146.322C329.04 146.322 329.292 146.309 329.527 146.277L330 146.219L327.269 150L327.124 149.973Z" fill="#EFF89C"/>
<path d="M319.629 142L319.372 142.26L317.254 144.418L317 144.678L317.227 144.957C320.075 148.483 327.267 149.884 327.572 149.942L327.867 150L328.031 149.759L330.469 146.219L331 145.449L330.036 145.574C329.806 145.603 329.56 145.622 329.303 145.622C325.439 145.622 319.998 142.231 319.944 142.197L319.629 142ZM319.698 142.549C319.698 142.549 325.256 146.041 329.303 146.041C329.575 146.041 329.84 146.026 330.097 145.993L327.659 149.533C327.659 149.533 320.359 148.146 317.58 144.702L319.698 142.549Z" fill="#E4B7FF"/>
<path d="M-4.46982 189.811C-4.65317 189.573 -8.97155 183.946 -8.84141 179.702L-8.83692 179.531L-5.59854 179.412L-5.54403 179.582C-5.52801 179.645 -3.66258 185.625 -0.796851 188.206C-0.602979 188.38 -0.406758 188.539 -0.211115 188.672L0.179381 188.945L-4.38016 189.928L-4.46982 189.811Z" fill="#EFF89C"/>
<path d="M-4.70489 178.871L-5.06984 178.892L-8.08751 179.078L-8.45055 179.102L-8.46892 179.461C-8.71136 183.987 -4.30453 189.841 -4.11669 190.088L-3.93569 190.328L-3.65259 190.259L0.527497 189.259L1.43783 189.042L0.637397 188.49C0.447229 188.358 0.251382 188.207 0.0608544 188.036C-2.81107 185.45 -4.58537 179.289 -4.60334 179.228L-4.70489 178.871ZM-5.02118 179.325C-5.02118 179.325 -3.22706 185.639 -0.219533 188.347C-0.0172637 188.529 0.189346 188.696 0.402433 188.842L-3.77762 189.842C-3.77762 189.842 -8.27438 183.927 -8.0356 179.508L-5.02118 179.325Z" fill="#E4B7FF"/>
<path d="M89.5302 100.811C89.3468 100.573 85.0285 94.9465 85.1586 90.7023L85.1631 90.5307L88.4015 90.4117L88.456 90.5819C88.472 90.6448 90.3374 96.6252 93.2031 99.2056C93.397 99.3801 93.5932 99.5386 93.7889 99.6724L94.1794 99.9452L89.6198 100.928L89.5302 100.811Z" fill="#EFF89C"/>
<path d="M89.2951 89.8707L88.9302 89.8921L85.9125 90.0785L85.5494 90.1016L85.5311 90.4609C85.2886 94.9868 89.6955 100.841 89.8833 101.088L90.0643 101.328L90.3474 101.259L94.5275 100.259L95.4378 100.042L94.6374 99.4898C94.4472 99.3575 94.2514 99.2071 94.0609 99.0355C91.1889 96.4496 89.4146 90.2894 89.3967 90.2279L89.2951 89.8707ZM88.9788 90.3248C88.9788 90.3248 90.7729 96.6389 93.7805 99.3469C93.9827 99.5291 94.1893 99.6957 94.4024 99.8421L90.2224 100.842C90.2224 100.842 85.7256 94.9265 85.9644 90.5076L88.9788 90.3248Z" fill="#E4B7FF"/>
<path d="M19.9271 79.7934C19.7098 80.0006 14.5652 84.8835 10.3306 85.1977L10.1595 85.2112L9.70268 82.003L9.86628 81.9309C9.92714 81.9085 15.6799 79.4281 17.9465 76.3084C18.0998 76.0973 18.2369 75.8856 18.3495 75.677L18.5801 75.2602L20.0342 79.692L19.9271 79.7934Z" fill="#EFF89C"/>
<path d="M9.07124 81.1708L9.13067 81.5315L9.63146 84.5131L9.6924 84.8718L10.0517 84.8525C14.5781 84.6205 19.9393 79.6259 20.1652 79.4133L20.3857 79.2081L20.2874 78.9338L18.8561 74.8811L18.5448 73.9985L18.0793 74.8523C17.9676 75.0552 17.8384 75.2657 17.6877 75.4731C15.4162 78.5996 9.4752 81.0081 9.41587 81.0324L9.07124 81.1708ZM9.55589 81.4378C9.55589 81.4378 15.648 78.9935 18.0267 75.7194C18.1867 75.4992 18.3308 75.2763 18.4542 75.0491L19.8855 79.1017C19.8855 79.1017 14.4725 84.1922 10.0528 84.4166L9.55589 81.4378Z" fill="#E4B7FF"/>
<path d="M274.124 120.973C273.829 120.919 266.855 119.627 264.111 116.386L264 116.255L266.327 114L266.481 114.09C266.535 114.126 271.923 117.322 275.78 117.322C276.04 117.322 276.292 117.309 276.527 117.277L277 117.219L274.269 121L274.124 120.973Z" fill="#F99300"/>
<path d="M266.629 113L266.372 113.26L264.254 115.418L264 115.678L264.227 115.957C267.075 119.483 274.267 120.884 274.572 120.942L274.867 121L275.031 120.759L277.469 117.219L278 116.449L277.036 116.574C276.806 116.603 276.56 116.622 276.303 116.622C272.439 116.622 266.998 113.231 266.944 113.197L266.629 113ZM266.698 113.549C266.698 113.549 272.256 117.041 276.303 117.041C276.575 117.041 276.84 117.026 277.097 116.993L274.659 120.533C274.659 120.533 267.359 119.146 264.58 115.702L266.698 113.549Z" fill="#E4B7FF"/>
<path d="M324.124 35.973C323.829 35.919 316.855 34.627 314.111 31.3859L314 31.2553L316.327 29L316.481 29.09C316.535 29.126 321.923 32.3222 325.78 32.3222C326.04 32.3222 326.292 32.3087 326.527 32.2772L327 32.2186L324.269 36L324.124 35.973Z" fill="#F99300"/>
<path d="M316.629 28L316.372 28.2601L314.254 30.4178L314 30.6779L314.227 30.9573C317.075 34.4828 324.267 35.8844 324.572 35.9422L324.867 36L325.031 35.7592L327.469 32.2192L328 31.4485L327.036 31.5737C326.806 31.6026 326.56 31.6219 326.303 31.6219C322.439 31.6219 316.998 28.2312 316.944 28.1975L316.629 28ZM316.698 28.5491C316.698 28.5491 322.256 32.0409 326.303 32.0409C326.575 32.0409 326.84 32.0265 327.097 31.9928L324.659 35.5328C324.659 35.5328 317.359 34.1457 314.58 30.702L316.698 28.5491Z" fill="#E4B7FF"/>
<path d="M177.927 7.79338C177.71 8.00058 172.565 12.8835 168.331 13.1977L168.16 13.2112L167.703 10.003L167.866 9.93095C167.927 9.90845 173.68 7.42811 175.946 4.30836C176.1 4.0973 176.237 3.88559 176.35 3.67704L176.58 3.26016L178.034 7.69198L177.927 7.79338Z" fill="#F99300"/>
<path d="M167.071 9.17076L167.131 9.53147L167.631 12.5131L167.692 12.8718L168.052 12.8525C172.578 12.6205 177.939 7.62591 178.165 7.41329L178.386 7.20811L178.287 6.93379L176.856 2.88111L176.545 1.99848L176.079 2.85225C175.968 3.05521 175.838 3.26571 175.688 3.47313C173.416 6.59962 167.475 9.00812 167.416 9.03242L167.071 9.17076ZM167.556 9.43785C167.556 9.43785 173.648 6.99354 176.027 3.71943C176.187 3.49923 176.331 3.27634 176.454 3.0491L177.886 7.10174C177.886 7.10174 172.473 12.1922 168.053 12.4166L167.556 9.43785Z" fill="#E4B7FF"/>
<path d="M219.124 27.973C218.829 27.919 211.855 26.627 209.111 23.3859L209 23.2553L211.327 21L211.481 21.09C211.535 21.126 216.923 24.3222 220.78 24.3222C221.04 24.3222 221.292 24.3087 221.527 24.2772L222 24.2186L219.269 28L219.124 27.973Z" fill="#DF5698"/>
<path d="M211.629 20L211.372 20.2601L209.254 22.4178L209 22.6779L209.227 22.9573C212.075 26.4828 219.267 27.8844 219.572 27.9422L219.867 28L220.031 27.7592L222.469 24.2192L223 23.4485L222.036 23.5737C221.806 23.6026 221.56 23.6219 221.303 23.6219C217.439 23.6219 211.998 20.2312 211.944 20.1975L211.629 20ZM211.698 20.5491C211.698 20.5491 217.256 24.0409 221.303 24.0409C221.575 24.0409 221.84 24.0265 222.097 23.9928L219.659 27.5328C219.659 27.5328 212.359 26.1457 209.58 22.702L211.698 20.5491Z" fill="#E4B7FF"/>
<path d="M68.1243 173.973C67.829 173.919 60.8547 172.627 58.1115 169.386L58 169.255L60.327 167L60.4814 167.09C60.5353 167.126 65.9233 170.322 69.7796 170.322C70.0404 170.322 70.2923 170.309 70.5272 170.277L71 170.219L68.2693 174L68.1243 173.973Z" fill="#DF5698"/>
<path d="M60.6291 166L60.3722 166.26L58.2543 168.418L58 168.678L58.2268 168.957C61.075 172.483 68.267 173.884 68.5718 173.942L68.8674 174L69.0315 173.759L71.4689 170.219L72 169.449L71.0356 169.574C70.8058 169.603 70.5596 169.622 70.3032 169.622C66.4386 169.622 60.9981 166.231 60.9436 166.197L60.6291 166ZM60.6979 166.549C60.6979 166.549 66.2562 170.041 70.3032 170.041C70.5754 170.041 70.8404 170.026 71.0968 169.993L68.6594 173.533C68.6594 173.533 61.3595 172.146 58.5801 168.702L60.6979 166.549Z" fill="#E4B7FF"/>
<path d="M305.53 185.811C305.347 185.573 301.028 179.946 301.159 175.702L301.163 175.531L304.401 175.412L304.456 175.582C304.472 175.645 306.337 181.625 309.203 184.206C309.397 184.38 309.593 184.539 309.789 184.672L310.179 184.945L305.62 185.928L305.53 185.811Z" fill="#DF5698"/>
<path d="M305.295 174.871L304.93 174.892L301.912 175.078L301.549 175.102L301.531 175.461C301.289 179.987 305.695 185.841 305.883 186.088L306.064 186.328L306.347 186.259L310.527 185.259L311.438 185.042L310.637 184.49C310.447 184.358 310.251 184.207 310.061 184.036C307.189 181.45 305.415 175.289 305.397 175.228L305.295 174.871ZM304.979 175.325C304.979 175.325 306.773 181.639 309.78 184.347C309.983 184.529 310.189 184.696 310.402 184.842L306.222 185.842C306.222 185.842 301.726 179.927 301.964 175.508L304.979 175.325Z" fill="#E4B7FF"/>
<path d="M180.53 120.811C180.347 120.573 176.028 114.946 176.159 110.702L176.163 110.531L179.401 110.412L179.456 110.582C179.472 110.645 181.337 116.625 184.203 119.206C184.397 119.38 184.593 119.539 184.789 119.672L185.179 119.945L180.62 120.928L180.53 120.811Z" fill="#DF5698"/>
<path d="M180.295 109.871L179.93 109.892L176.912 110.078L176.549 110.102L176.531 110.461C176.289 114.987 180.695 120.841 180.883 121.088L181.064 121.328L181.347 121.259L185.527 120.259L186.438 120.042L185.637 119.49C185.447 119.358 185.251 119.207 185.061 119.036C182.189 116.45 180.415 110.289 180.397 110.228L180.295 109.871ZM179.979 110.325C179.979 110.325 181.773 116.639 184.78 119.347C184.983 119.529 185.189 119.696 185.402 119.842L181.222 120.842C181.222 120.842 176.726 114.927 176.964 110.508L179.979 110.325Z" fill="#E4B7FF"/>
</svg>
