<svg width="198" height="198" viewBox="0 0 198 198" fill="none" xmlns="http://www.w3.org/2000/svg">
<path d="M70.7515 46.0217C68.0997 44.5709 65.9296 42.402 64.4789 39.749L62.879 36.8232C62.6016 36.3149 62.0691 36 61.489 36C60.9111 36 60.3774 36.3149 60.1001 36.8254L58.5002 39.7513C57.0495 42.4041 54.8793 44.5731 52.2276 46.0239L49.3017 47.6238C48.7945 47.9011 48.4785 48.4348 48.4785 49.0127C48.4785 49.5906 48.7956 50.1242 49.3017 50.4016L52.2276 52.0015C54.8793 53.4522 57.0494 55.6212 58.5002 58.2741L60.1001 61.2C60.3785 61.7082 60.9111 62.0253 61.489 62.0253C62.0691 62.0253 62.6005 61.7104 62.8779 61.2L64.4778 58.2741C65.9285 55.6212 68.0986 53.4522 70.7504 52.0015L73.6763 50.4016C74.1834 50.1242 74.4994 49.5906 74.4994 49.0127C74.4994 48.4348 74.1823 47.9011 73.6763 47.6238L70.7515 46.0217ZM69.23 49.2214C66.0456 50.9627 63.4402 53.5658 61.6978 56.7536L61.489 57.137L61.278 56.7536C59.5355 53.5669 56.9302 50.9626 53.7458 49.2214L53.3624 49.0103L53.7458 48.7993C56.9302 47.058 59.5356 44.4549 61.278 41.2671L61.489 40.8837L61.6978 41.2671C63.4403 44.4538 66.0456 47.058 69.23 48.7993L69.6135 49.0103L69.23 49.2214Z" fill="url(#paint0_linear_717_21689)"/>
<path d="M161.811 50.5729L158.132 48.5598C154.727 46.6958 151.94 43.9093 150.077 40.504L148.064 36.8246C147.506 35.8059 145.842 35.8059 145.284 36.8246L143.271 40.504C141.408 43.9093 138.621 46.696 135.218 48.5598L131.534 50.5729C131.026 50.8503 130.709 51.3839 130.709 51.9618C130.709 52.5397 131.026 53.0734 131.534 53.3507L135.214 55.3639C138.619 57.2278 141.406 60.0143 143.269 63.4196L145.282 67.099C145.56 67.6073 146.093 67.9244 146.671 67.9244C147.249 67.9244 147.782 67.6095 148.06 67.099L150.073 63.4196C151.936 60.0143 154.722 57.2276 158.125 55.3639L161.807 53.3507C162.315 53.0734 162.632 52.5397 162.632 51.9618C162.634 51.3839 162.319 50.8503 161.812 50.5729H161.811ZM156.609 52.5861C152.671 54.7385 149.45 57.9626 147.295 61.9017L146.673 63.0397L146.048 61.9006C143.894 57.9615 140.672 54.7398 136.734 52.585L135.595 51.9607L136.734 51.3364C140.672 49.1841 143.894 45.9599 146.048 42.0208L146.673 40.885L147.297 42.0241C149.452 45.9632 152.673 49.185 156.611 51.3398L157.751 51.964L156.609 52.5861Z" fill="url(#paint1_linear_717_21689)"/>
<path d="M155.946 129.31C155.946 124.604 152.124 120.775 147.427 120.775C142.73 120.775 138.91 124.604 138.91 129.31C138.91 134.016 142.731 137.844 147.427 137.844C152.124 137.844 155.946 134.016 155.946 129.31ZM142.077 129.31C142.077 126.351 144.477 123.943 147.426 123.943C150.377 123.943 152.777 126.351 152.777 129.31C152.777 132.269 150.377 134.676 147.426 134.676C144.477 134.676 142.077 132.269 142.077 129.31Z" fill="url(#paint2_linear_717_21689)"/>
<path d="M111.803 44.5363C111.803 39.8304 107.981 36.002 103.284 36.002C98.5873 36.002 94.7676 39.8304 94.7676 44.5363C94.7676 49.2422 98.5884 53.0707 103.284 53.0707C107.98 53.0707 111.803 49.24 111.803 44.5363ZM103.284 49.9007C100.335 49.9007 97.9353 47.4931 97.9353 44.5341C97.9353 41.575 100.335 39.1674 103.284 39.1674C106.235 39.1674 108.635 41.575 108.635 44.5341C108.635 47.4931 106.235 49.9007 103.284 49.9007Z" fill="url(#paint3_linear_717_21689)"/>
<path d="M131.977 94.043C131.977 98.7512 135.797 102.58 140.493 102.58C145.19 102.58 149.01 98.7512 149.01 94.043C149.01 89.3371 145.189 85.5098 140.493 85.5098C135.796 85.5109 131.977 89.3371 131.977 94.043ZM145.844 94.043C145.844 97.002 143.444 99.4108 140.495 99.4108C137.546 99.4108 135.147 97.001 135.147 94.043C135.147 91.085 137.546 88.6775 140.495 88.6775C143.444 88.6786 145.844 91.084 145.844 94.043Z" fill="url(#paint4_linear_717_21689)"/>
<path d="M78.6038 65.2223C78.2304 64.8466 77.6945 64.682 77.1785 64.787C76.6603 64.8864 76.2261 65.24 76.0217 65.7283L36.1247 160.525C35.8738 161.12 36.0086 161.805 36.465 162.261C36.7677 162.561 37.1732 162.724 37.5853 162.724C37.7931 162.724 38.003 162.684 38.203 162.599L132.782 122.611C133.267 122.407 133.618 121.975 133.72 121.457C133.822 120.939 133.658 120.407 133.288 120.035L78.6038 65.2223ZM124.333 122.741L123.642 121.42C123.236 120.645 122.282 120.346 121.504 120.751C120.729 121.158 120.43 122.115 120.836 122.889L121.409 123.979L83.5426 139.988L82.6001 138.122C82.2056 137.344 81.2521 137.026 80.4731 137.423C79.692 137.818 79.3782 138.771 79.7726 139.553L80.619 141.227L40.5579 158.163L50.1298 135.419L51.1529 136.089C51.4203 136.263 51.7198 136.347 52.0181 136.347C52.5341 136.347 53.0412 136.095 53.3451 135.631C53.8235 134.898 53.6191 133.918 52.8854 133.437L51.3773 132.45L61.1336 109.272L62.4009 109.458C62.4782 109.47 62.5556 109.476 62.634 109.476C63.4075 109.476 64.0837 108.91 64.1986 108.124C64.3267 107.258 63.7279 106.453 62.8616 106.326L62.402 106.257L69.5376 89.3035L70.3166 90.1985C70.6304 90.5598 71.0701 90.7432 71.5121 90.7432C71.8811 90.7432 72.2513 90.615 72.5507 90.3532C73.2115 89.7797 73.2789 88.7787 72.7054 88.1202L71.1906 86.381C71.0989 86.275 70.9795 86.2087 70.8691 86.1335L78.0245 69.1324L94.7982 85.9392L93.5939 86.9071C92.9132 87.4552 92.8038 88.4518 93.3519 89.1324C93.6657 89.5225 94.1253 89.7247 94.5872 89.7247C94.9352 89.7247 95.2855 89.6109 95.5783 89.3744L97.0478 88.1944L115.035 106.22L114.005 107.118C113.344 107.693 113.278 108.694 113.852 109.354C114.166 109.713 114.605 109.897 115.047 109.897C115.416 109.897 115.786 109.769 116.088 109.507L117.279 108.468L129.388 120.607L124.333 122.741Z" fill="url(#paint5_linear_717_21689)"/>
<path d="M110.22 80.3909C110.708 80.3909 111.187 80.1655 111.498 79.7435C111.998 79.0606 123.707 62.7279 120.485 37.3856C120.375 36.5194 119.579 35.9161 118.714 36.0144C117.845 36.1238 117.231 36.9171 117.343 37.7856C120.398 61.8197 109.057 77.7165 108.941 77.8749C108.426 78.5809 108.58 79.5709 109.287 80.0858C109.566 80.2924 109.895 80.3908 110.219 80.3908L110.22 80.3909Z" fill="url(#paint6_linear_717_21689)"/>
<path d="M162.54 82.4631C162.864 81.6488 162.468 80.7284 161.656 80.4036C137.863 70.9058 119.247 85.4342 118.463 86.0573C117.779 86.6021 117.668 87.5998 118.213 88.2826C118.526 88.6738 118.987 88.8782 119.451 88.8782C119.798 88.8782 120.146 88.7655 120.438 88.5312C120.616 88.3898 138.377 74.5241 160.479 83.3448C161.296 83.6751 162.214 83.274 162.539 82.463L162.54 82.4631Z" fill="url(#paint7_linear_717_21689)"/>
<path d="M88.5318 68.4779C88.6512 68.5067 88.7694 68.5188 88.8887 68.5188C89.6091 68.5188 90.2599 68.0249 90.43 67.2913C90.5803 66.6349 94.0144 51.1033 83.4061 41.7082C82.7498 41.1315 81.751 41.1923 81.1698 41.8442C80.5897 42.4983 80.6505 43.5015 81.3046 44.0805C90.4887 52.2149 87.375 66.4384 87.3408 66.5809C87.1474 67.4339 87.68 68.2836 88.5319 68.478L88.5318 68.4779Z" fill="url(#paint8_linear_717_21689)"/>
<path d="M133.872 108.868C133.036 109.124 132.565 110.011 132.822 110.848C133.081 111.683 133.966 112.155 134.802 111.896C134.978 111.844 152.302 106.669 159.825 117.266C160.135 117.7 160.622 117.933 161.118 117.933C161.435 117.933 161.754 117.838 162.034 117.64C162.747 117.136 162.915 116.146 162.408 115.431C153.575 102.991 134.67 108.625 133.873 108.868L133.872 108.868Z" fill="url(#paint9_linear_717_21689)"/>
<path d="M95.9944 117.899C95.6806 117.081 94.7668 116.676 93.9481 116.988L91.7957 117.814C90.9781 118.127 90.5715 119.042 90.8852 119.86C91.1272 120.489 91.7283 120.877 92.3647 120.877C92.5537 120.877 92.7448 120.843 92.9315 120.772L95.0839 119.946C95.9015 119.632 96.3081 118.716 95.9944 117.899Z" fill="url(#paint10_linear_717_21689)"/>
<path d="M78.9233 80.8039C79.1123 80.8039 79.3034 80.7708 79.4901 80.699L81.6425 79.8736C82.4601 79.5598 82.8667 78.6449 82.553 77.8273C82.2392 77.0119 81.3243 76.6064 80.5067 76.9168L78.3543 77.7422C77.5367 78.056 77.1301 78.9709 77.4438 79.7885C77.6869 80.4172 78.2869 80.8039 78.9233 80.8039V80.8039Z" fill="url(#paint11_linear_717_21689)"/>
<path d="M110.963 113.343C110.105 113.504 109.538 114.333 109.699 115.191L110.126 117.456C110.268 118.216 110.933 118.747 111.682 118.747C111.778 118.747 111.878 118.737 111.977 118.718C112.835 118.557 113.402 117.728 113.241 116.869L112.814 114.604C112.653 113.747 111.825 113.179 110.963 113.343V113.343Z" fill="url(#paint12_linear_717_21689)"/>
<path d="M76.9458 98.1785L79.2263 98.5144C79.3037 98.5266 79.381 98.5321 79.4594 98.5321C80.2329 98.5321 80.9091 97.9664 81.024 97.1797C81.1522 96.3146 80.5533 95.5091 79.687 95.382L77.4065 95.0461C76.5513 94.9113 75.737 95.5168 75.6088 96.3831C75.4817 97.246 76.0806 98.0515 76.9458 98.1786L76.9458 98.1785Z" fill="url(#paint13_linear_717_21689)"/>
<path d="M82.9014 114.987L81.3865 113.248C80.812 112.587 79.812 112.518 79.1513 113.093C78.4906 113.667 78.4232 114.668 78.9966 115.326L80.5115 117.065C80.8253 117.427 81.265 117.61 81.707 117.61C82.076 117.61 82.4462 117.482 82.7456 117.22C83.4063 116.648 83.476 115.647 82.9014 114.987L82.9014 114.987Z" fill="url(#paint14_linear_717_21689)"/>
<path d="M69.9846 138.677C69.578 137.906 68.619 137.608 67.8444 138.013C67.0699 138.42 66.7737 139.379 67.1803 140.153L68.2543 142.192C68.5383 142.73 69.0874 143.038 69.6575 143.038C69.9062 143.038 70.1581 142.98 70.3945 142.856C71.1691 142.449 71.4652 141.49 71.0586 140.716L69.9846 138.677Z" fill="url(#paint15_linear_717_21689)"/>
<path d="M51.9846 146.897L49.7007 147.206C48.8345 147.323 48.2257 148.122 48.345 148.989C48.4522 149.784 49.1317 150.36 49.9118 150.36C49.9836 150.36 50.0543 150.355 50.1272 150.345L52.4111 150.036C53.2773 149.919 53.8861 149.12 53.7668 148.254C53.6497 147.386 52.8497 146.791 51.9846 146.897L51.9846 146.897Z" fill="url(#paint16_linear_717_21689)"/>
<path d="M72.005 120.43L69.7211 120.737C68.8549 120.854 68.2449 121.651 68.3621 122.519C68.4692 123.315 69.1488 123.89 69.9299 123.89C69.9996 123.89 70.0725 123.886 70.1443 123.876L72.4282 123.569C73.2944 123.452 73.9043 122.655 73.7872 121.787C73.669 120.92 72.8602 120.316 72.005 120.43V120.43Z" fill="url(#paint17_linear_717_21689)"/>
<defs>
<linearGradient id="paint0_linear_717_21689" x1="74.4994" y1="49.1415" x2="48.5988" y2="47.3765" gradientUnits="userSpaceOnUse">
<stop stop-color="#701FFF"/>
<stop offset="1" stop-color="#9C1FFF"/>
</linearGradient>
<linearGradient id="paint1_linear_717_21689" x1="162.632" y1="52.1502" x2="130.857" y2="49.9804" gradientUnits="userSpaceOnUse">
<stop stop-color="#701FFF"/>
<stop offset="1" stop-color="#9C1FFF"/>
</linearGradient>
<linearGradient id="paint2_linear_717_21689" x1="155.946" y1="129.394" x2="138.989" y2="128.241" gradientUnits="userSpaceOnUse">
<stop stop-color="#701FFF"/>
<stop offset="1" stop-color="#9C1FFF"/>
</linearGradient>
<linearGradient id="paint3_linear_717_21689" x1="111.803" y1="44.6208" x2="94.846" y2="43.4673" gradientUnits="userSpaceOnUse">
<stop stop-color="#701FFF"/>
<stop offset="1" stop-color="#9C1FFF"/>
</linearGradient>
<linearGradient id="paint4_linear_717_21689" x1="149.01" y1="94.1292" x2="132.055" y2="92.9761" gradientUnits="userSpaceOnUse">
<stop stop-color="#701FFF"/>
<stop offset="1" stop-color="#9C1FFF"/>
</linearGradient>
<linearGradient id="paint5_linear_717_21689" x1="133.75" y1="114.225" x2="36.45" y2="107.608" gradientUnits="userSpaceOnUse">
<stop stop-color="#701FFF"/>
<stop offset="1" stop-color="#9C1FFF"/>
</linearGradient>
<linearGradient id="paint6_linear_717_21689" x1="121.045" y1="58.4172" x2="108.641" y2="58.1808" gradientUnits="userSpaceOnUse">
<stop stop-color="#701FFF"/>
<stop offset="1" stop-color="#9C1FFF"/>
</linearGradient>
<linearGradient id="paint7_linear_717_21689" x1="162.653" y1="83.0926" x2="120.727" y2="72.1419" gradientUnits="userSpaceOnUse">
<stop stop-color="#701FFF"/>
<stop offset="1" stop-color="#9C1FFF"/>
</linearGradient>
<linearGradient id="paint8_linear_717_21689" x1="91.0777" y1="55.0503" x2="80.7783" y2="54.7844" gradientUnits="userSpaceOnUse">
<stop stop-color="#701FFF"/>
<stop offset="1" stop-color="#9C1FFF"/>
</linearGradient>
<linearGradient id="paint9_linear_717_21689" x1="162.701" y1="112.712" x2="133.833" y2="107.125" gradientUnits="userSpaceOnUse">
<stop stop-color="#701FFF"/>
<stop offset="1" stop-color="#9C1FFF"/>
</linearGradient>
<linearGradient id="paint10_linear_717_21689" x1="96.1003" y1="118.899" x2="90.8228" y2="118.42" gradientUnits="userSpaceOnUse">
<stop stop-color="#701FFF"/>
<stop offset="1" stop-color="#9C1FFF"/>
</linearGradient>
<linearGradient id="paint11_linear_717_21689" x1="82.6589" y1="78.828" x2="77.3815" y2="78.3485" gradientUnits="userSpaceOnUse">
<stop stop-color="#701FFF"/>
<stop offset="1" stop-color="#9C1FFF"/>
</linearGradient>
<linearGradient id="paint12_linear_717_21689" x1="113.268" y1="116.057" x2="109.679" y2="115.896" gradientUnits="userSpaceOnUse">
<stop stop-color="#701FFF"/>
<stop offset="1" stop-color="#9C1FFF"/>
</linearGradient>
<linearGradient id="paint13_linear_717_21689" x1="81.0413" y1="96.7971" x2="75.6523" y2="96.226" gradientUnits="userSpaceOnUse">
<stop stop-color="#701FFF"/>
<stop offset="1" stop-color="#9C1FFF"/>
</linearGradient>
<linearGradient id="paint14_linear_717_21689" x1="83.2906" y1="115.181" x2="78.6272" y2="114.878" gradientUnits="userSpaceOnUse">
<stop stop-color="#701FFF"/>
<stop offset="1" stop-color="#9C1FFF"/>
</linearGradient>
<linearGradient id="paint15_linear_717_21689" x1="71.2409" y1="140.461" x2="67.0111" y2="140.226" gradientUnits="userSpaceOnUse">
<stop stop-color="#701FFF"/>
<stop offset="1" stop-color="#9C1FFF"/>
</linearGradient>
<linearGradient id="paint16_linear_717_21689" x1="53.7818" y1="148.639" x2="48.3917" y2="148.063" gradientUnits="userSpaceOnUse">
<stop stop-color="#701FFF"/>
<stop offset="1" stop-color="#9C1FFF"/>
</linearGradient>
<linearGradient id="paint17_linear_717_21689" x1="73.8016" y1="122.17" x2="68.4094" y2="121.593" gradientUnits="userSpaceOnUse">
<stop stop-color="#701FFF"/>
<stop offset="1" stop-color="#9C1FFF"/>
</linearGradient>
</defs>
</svg>
