<svg width="198" height="198" viewBox="0 0 198 198" fill="none" xmlns="http://www.w3.org/2000/svg">
<path d="M103.128 102.673C103.037 102.673 102.944 102.663 102.851 102.641C102.391 102.535 102.031 102.177 101.923 101.717L94.0969 68.2578C93.9963 67.8258 94.1333 67.3727 94.4581 67.0711C94.7819 66.7683 95.2426 66.6623 95.6669 66.7938C99.0623 67.8423 102.556 68.7804 106.051 69.5837C112.595 71.0863 119.154 72.1261 125.547 72.6764C126.003 72.7162 126.401 73.0035 126.58 73.4255C126.759 73.8476 126.691 74.3338 126.402 74.6884L104.09 102.216C103.852 102.508 103.497 102.672 103.128 102.672L103.128 102.673ZM96.9949 69.7764L103.759 98.6929L123.028 74.9218C117.256 74.3252 111.37 73.3429 105.498 71.9948C102.645 71.3385 99.7946 70.5949 96.9949 69.7751V69.7764Z" fill="url(#paint0_linear_717_21688)"/>
<path d="M57.6282 79.8837C57.3884 79.8837 57.1486 79.814 56.9409 79.6748C56.5476 79.413 56.3387 78.9489 56.4017 78.4815L60.0777 51.104C60.1363 50.6654 60.4247 50.2919 60.8335 50.124C61.2423 49.9561 61.7097 50.019 62.0599 50.2897C67.9258 54.82 75.4614 59.0561 83.8532 62.5409C84.2875 62.721 84.5825 63.132 84.6134 63.6016C84.6444 64.0712 84.4068 64.5175 84.0002 64.754L58.2491 79.7166C58.0569 79.8282 57.8425 79.8834 57.6282 79.8834L57.6282 79.8837ZM62.25 53.5216L59.1907 76.3072L80.6247 63.8527C73.7213 60.8196 67.4422 57.2896 62.25 53.5219V53.5216Z" fill="url(#paint1_linear_717_21688)"/>
<path d="M153.245 100.633C152.837 100.633 152.452 100.431 152.22 100.087L135.35 75.0567C135.095 74.6777 135.069 74.1893 135.282 73.786C135.496 73.3827 135.914 73.1297 136.371 73.1275C146.461 73.0855 155.47 71.6613 162.423 69.0051C162.869 68.835 163.374 68.9366 163.719 69.2659C164.064 69.5952 164.19 70.0946 164.041 70.5476L154.421 99.7809C154.273 100.229 153.883 100.555 153.416 100.619C153.357 100.629 153.301 100.633 153.245 100.633L153.245 100.633ZM138.679 75.5705L152.858 96.6103L160.902 72.1652C154.632 74.1971 147.041 75.3607 138.679 75.5705H138.679Z" fill="url(#paint2_linear_717_21688)"/>
<path d="M135.908 75.5912C126.39 75.5912 116.01 74.4089 105.5 71.9958C81.9979 66.5994 61.3606 55.7702 51.6473 43.7332C51.2186 43.2018 51.3015 42.4228 51.8329 41.993C52.3644 41.5643 53.1434 41.6472 53.5732 42.1786C62.9572 53.8046 83.0667 64.3057 106.057 69.5838C131.721 75.4752 156.457 73.9472 169.075 65.6889C169.647 65.3143 170.414 65.4756 170.788 66.0469C171.162 66.6192 171.002 67.386 170.43 67.7606C162.535 72.9273 150.198 75.5912 135.913 75.5912L135.908 75.5912Z" fill="url(#paint3_linear_717_21688)"/>
<path d="M94.858 164.241C94.49 164.241 94.1343 164.077 93.8967 163.783L71.583 136.255C71.2946 135.899 71.2261 135.413 71.4051 134.992C71.5841 134.57 71.9818 134.283 72.4381 134.243C78.8302 133.694 85.3888 132.653 91.9332 131.152C95.4248 130.349 98.9184 129.411 102.318 128.362C102.742 128.231 103.203 128.336 103.527 128.639C103.851 128.942 103.989 129.394 103.887 129.826L96.0623 163.285C95.9551 163.744 95.595 164.104 95.1342 164.209C95.0425 164.23 94.9497 164.241 94.858 164.241L94.858 164.241ZM74.9595 136.491L94.2281 160.262L100.992 131.345C98.1891 132.165 95.3385 132.91 92.489 133.564C86.6164 134.912 80.7318 135.894 74.9595 136.491V136.491Z" fill="url(#paint4_linear_717_21688)"/>
<path d="M140.358 141.453C140.144 141.453 139.929 141.398 139.736 141.285L113.985 126.322C113.578 126.086 113.341 125.639 113.372 125.17C113.403 124.7 113.698 124.289 114.132 124.109C122.522 120.626 130.057 116.389 135.924 111.858C136.274 111.587 136.742 111.524 137.151 111.692C137.559 111.86 137.848 112.234 137.906 112.672L141.566 139.926C141.588 140.019 141.6 140.115 141.6 140.215C141.6 140.899 141.047 141.452 140.363 141.452C140.363 141.452 140.361 141.452 140.358 141.453L140.358 141.453ZM117.362 125.421L138.796 137.875L135.736 115.089C130.542 118.858 124.265 122.387 117.362 125.42V125.421Z" fill="url(#paint5_linear_717_21688)"/>
<path d="M44.7399 162.204C44.6835 162.204 44.6272 162.199 44.5697 162.192C44.1012 162.127 43.7112 161.802 43.5642 161.353L33.9448 132.12C33.7957 131.667 33.9205 131.167 34.2663 130.838C34.6122 130.509 35.116 130.407 35.5624 130.577C42.5167 133.232 51.5252 134.658 61.615 134.699C62.0713 134.701 62.4901 134.954 62.7033 135.357C62.9166 135.76 62.8911 136.249 62.6359 136.628L45.766 161.657C45.534 162.001 45.1473 162.203 44.7396 162.203L44.7399 162.204ZM37.0818 133.734L45.1257 158.178L59.305 137.14C50.9452 136.931 43.3533 135.766 37.0821 133.734H37.0818Z" fill="url(#paint6_linear_717_21688)"/>
<path d="M62.0769 137.159C47.7904 137.159 35.4553 134.495 27.5599 129.327C26.9875 128.953 26.8284 128.186 27.2019 127.615C27.5764 127.043 28.3433 126.882 28.9156 127.257C41.5336 135.514 66.2697 137.043 91.9334 131.152C114.922 125.874 135.032 115.373 144.418 103.746C144.846 103.214 145.625 103.13 146.158 103.56C146.689 103.99 146.772 104.768 146.343 105.3C136.628 117.337 115.993 128.167 92.4874 133.564C81.9786 135.976 71.5947 137.159 62.0802 137.159L62.0769 137.159Z" fill="url(#paint7_linear_717_21688)"/>
<path d="M46.3785 108.805C43.1765 108.805 40.5723 106.2 40.5723 102.999C40.5723 99.7968 43.1776 97.1914 46.3785 97.1914C49.5804 97.1914 52.1858 99.7968 52.1858 102.999C52.1858 106.201 49.5804 108.805 46.3785 108.805ZM46.3785 99.6673C44.541 99.6673 43.0473 101.162 43.0473 103C43.0473 104.837 44.5422 106.331 46.3785 106.331C48.2159 106.331 49.7108 104.836 49.7108 103C49.7108 101.161 48.2159 99.6673 46.3785 99.6673Z" fill="url(#paint8_linear_717_21688)"/>
<path d="M159.085 53.9768C155.883 53.9768 153.277 51.3715 153.277 48.1695C153.277 44.9675 155.883 42.3633 159.085 42.3633C162.287 42.3633 164.891 44.9687 164.891 48.1695C164.892 51.3714 162.287 53.9768 159.085 53.9768ZM159.085 44.838C157.247 44.838 155.752 46.333 155.752 48.1692C155.752 50.0067 157.247 51.5016 159.085 51.5016C160.922 51.5016 162.416 50.0066 162.416 48.1692C162.417 46.3328 160.922 44.838 159.085 44.838Z" fill="url(#paint9_linear_717_21688)"/>
<path d="M75.3165 113.678C75.0999 113.678 74.88 113.621 74.6812 113.502L66.3258 108.489C65.4718 107.976 64.9414 107.039 64.9414 106.043C64.9414 105.048 65.4718 104.111 66.3258 103.598L73.8979 99.055C74.0106 98.9876 74.0802 98.8639 74.0802 98.7324V98.6252C74.0802 98.507 74.0239 98.3943 73.9289 98.3236L67.9094 93.81C67.1945 93.2742 66.768 92.4211 66.768 91.5284C66.768 90.4179 67.3724 89.4401 68.3447 88.955L72.7708 86.7419C73.5774 86.3386 74.078 85.5287 74.078 84.6271V83.1984C74.078 82.5145 74.6315 81.9609 75.3155 81.9609C75.9994 81.9609 76.553 82.5145 76.553 83.1984V84.6271C76.553 86.4723 75.5276 88.1308 73.878 88.9551L69.4507 91.1693C69.3225 91.2334 69.243 91.3627 69.243 91.5063C69.243 91.6478 69.2993 91.7605 69.3932 91.8301L75.4127 96.3447C76.1276 96.8806 76.5541 97.7336 76.5541 98.6264V98.7336C76.5541 99.7291 76.0238 100.666 75.1708 101.179L67.5987 105.722C67.486 105.789 67.4164 105.913 67.4164 106.045C67.4164 106.176 67.4871 106.3 67.5998 106.368L75.954 111.381C76.5396 111.733 76.7296 112.493 76.3783 113.079C76.1462 113.464 75.7363 113.679 75.3164 113.679L75.3165 113.678Z" fill="url(#paint10_linear_717_21688)"/>
<path d="M136.238 60.0689C136.022 60.0689 135.802 60.0114 135.603 59.8921L127.248 54.879C126.394 54.3663 125.863 53.4294 125.863 52.4338C125.863 51.4383 126.394 50.5014 127.248 49.9887L134.82 45.4454C134.933 45.378 135.002 45.2543 135.002 45.1228V45.0156C135.002 44.8974 134.946 44.7847 134.852 44.714L128.832 40.2004C128.118 39.6646 127.691 38.8116 127.691 37.9188C127.691 36.8084 128.295 35.8316 129.268 35.3454L133.694 33.1312C134.305 32.8252 135.048 33.0727 135.353 33.6848C135.659 34.2958 135.412 35.0394 134.8 35.3454L130.373 37.5597C130.243 37.6238 130.164 37.753 130.164 37.8967C130.164 38.0381 130.22 38.1508 130.314 38.2215L136.334 42.7362C137.048 43.2721 137.474 44.1251 137.474 45.0178V45.125C137.474 46.1205 136.943 47.0575 136.089 47.5702L128.517 52.1134C128.405 52.1808 128.335 52.3046 128.335 52.436C128.335 52.5675 128.406 52.6913 128.517 52.7587L136.871 57.7718C137.458 58.1231 137.648 58.8833 137.296 59.47C137.069 59.8545 136.659 60.0689 136.238 60.0689H136.238Z" fill="url(#paint11_linear_717_21688)"/>
<path d="M154.517 160.592C150.476 160.592 147.188 157.303 147.188 153.262C147.188 149.22 150.476 145.932 154.517 145.932C158.559 145.932 161.847 149.22 161.847 153.262C161.847 157.303 158.559 160.592 154.517 160.592ZM154.517 148.407C151.84 148.407 149.662 150.584 149.662 153.262C149.662 155.939 151.84 158.117 154.517 158.117C157.195 158.117 159.372 155.939 159.372 153.262C159.372 150.584 157.194 148.407 154.517 148.407Z" fill="url(#paint12_linear_717_21688)"/>
<path d="M38.4444 52.449C40.1184 52.2811 41.611 53.5031 41.779 55.177C41.9459 56.851 40.7249 58.3436 39.051 58.5105C37.3771 58.6785 35.8844 57.4564 35.7164 55.7825C35.5496 54.1085 36.7705 52.6159 38.4444 52.449Z" fill="url(#paint13_linear_717_21688)"/>
<path d="M123.751 92.3512C125.425 92.1843 126.918 93.4053 127.086 95.0792C127.254 96.7531 126.032 98.2458 124.358 98.4138C122.684 98.5806 121.191 97.3597 121.023 95.6858C120.856 94.0118 122.078 92.5192 123.751 92.3512Z" fill="url(#paint14_linear_717_21688)"/>
<path d="M84.1505 40.5682C85.8245 40.4002 87.3171 41.6223 87.4851 43.2962C87.652 44.9701 86.431 46.4628 84.7571 46.6308C83.0832 46.7988 81.5905 45.5767 81.4236 43.9028C81.2557 42.2277 82.4766 40.7351 84.1505 40.5682H84.1505Z" fill="url(#paint15_linear_717_21688)"/>
<path d="M108.519 156.322C110.193 156.154 111.685 157.376 111.852 159.05C112.02 160.724 110.798 162.217 109.125 162.384C107.451 162.551 105.959 161.329 105.791 159.656C105.624 157.982 106.846 156.489 108.519 156.322H108.519Z" fill="url(#paint16_linear_717_21688)"/>
<path d="M151.151 110.326C152.825 110.158 154.318 111.38 154.485 113.054C154.653 114.728 153.432 116.221 151.757 116.387C150.083 116.555 148.59 115.333 148.423 113.659C148.257 111.986 149.478 110.494 151.151 110.326Z" fill="url(#paint17_linear_717_21688)"/>
<path d="M157.564 132.54L163.626 131.934L164.233 137.995L158.171 138.602L157.564 132.54Z" fill="url(#paint18_linear_717_21688)"/>
<path d="M87.5039 113.691L93.5655 113.084L94.1721 119.146L88.1105 119.752L87.5039 113.691Z" fill="url(#paint19_linear_717_21688)"/>
<path d="M99.6855 47.2511L105.747 46.6445L106.354 52.7062L100.292 53.3127L99.6855 47.2511Z" fill="url(#paint20_linear_717_21688)"/>
<path d="M65.6016 159.386L71.6632 158.779L72.2698 164.841L66.2081 165.448L65.6016 159.386Z" fill="url(#paint21_linear_717_21688)"/>
<defs>
<linearGradient id="paint0_linear_717_21688" x1="127.189" y1="88.8077" x2="89.2929" y2="82.0865" gradientUnits="userSpaceOnUse">
<stop stop-color="#DF5698"/>
<stop offset="0.29082" stop-color="#FF6A84"/>
<stop offset="0.548983" stop-color="#FF886F"/>
<stop offset="0.71421" stop-color="#FFAD60"/>
<stop offset="0.907695" stop-color="#FFD35E"/>
<stop offset="1" stop-color="#F9F871"/>
</linearGradient>
<linearGradient id="paint1_linear_717_21688" x1="85.0579" y1="68.3654" x2="52.3462" y2="62.3214" gradientUnits="userSpaceOnUse">
<stop stop-color="#DF5698"/>
<stop offset="0.29082" stop-color="#FF6A84"/>
<stop offset="0.548983" stop-color="#FF886F"/>
<stop offset="0.71421" stop-color="#FFAD60"/>
<stop offset="0.907695" stop-color="#FFD35E"/>
<stop offset="1" stop-color="#F9F871"/>
</linearGradient>
<linearGradient id="paint2_linear_717_21688" x1="164.556" y1="88.3984" x2="130.914" y2="82.3934" gradientUnits="userSpaceOnUse">
<stop stop-color="#DF5698"/>
<stop offset="0.29082" stop-color="#FF6A84"/>
<stop offset="0.548983" stop-color="#FF886F"/>
<stop offset="0.71421" stop-color="#FFAD60"/>
<stop offset="0.907695" stop-color="#FFD35E"/>
<stop offset="1" stop-color="#F9F871"/>
</linearGradient>
<linearGradient id="paint3_linear_717_21688" x1="172.862" y1="62.5218" x2="75.7488" y2="-4.49545" gradientUnits="userSpaceOnUse">
<stop stop-color="#DF5698"/>
<stop offset="0.29082" stop-color="#FF6A84"/>
<stop offset="0.548983" stop-color="#FF886F"/>
<stop offset="0.71421" stop-color="#FFAD60"/>
<stop offset="0.907695" stop-color="#FFD35E"/>
<stop offset="1" stop-color="#F9F871"/>
</linearGradient>
<linearGradient id="paint4_linear_717_21688" x1="104.431" y1="150.376" x2="66.5352" y2="143.655" gradientUnits="userSpaceOnUse">
<stop stop-color="#DF5698"/>
<stop offset="0.29082" stop-color="#FF6A84"/>
<stop offset="0.548983" stop-color="#FF886F"/>
<stop offset="0.71421" stop-color="#FFAD60"/>
<stop offset="0.907695" stop-color="#FFD35E"/>
<stop offset="1" stop-color="#F9F871"/>
</linearGradient>
<linearGradient id="paint5_linear_717_21688" x1="142.042" y1="129.934" x2="109.324" y2="123.888" gradientUnits="userSpaceOnUse">
<stop stop-color="#DF5698"/>
<stop offset="0.29082" stop-color="#FF6A84"/>
<stop offset="0.548983" stop-color="#FF886F"/>
<stop offset="0.71421" stop-color="#FFAD60"/>
<stop offset="0.907695" stop-color="#FFD35E"/>
<stop offset="1" stop-color="#F9F871"/>
</linearGradient>
<linearGradient id="paint6_linear_717_21688" x1="63.3004" y1="149.97" x2="29.6586" y2="143.964" gradientUnits="userSpaceOnUse">
<stop stop-color="#DF5698"/>
<stop offset="0.29082" stop-color="#FF6A84"/>
<stop offset="0.548983" stop-color="#FF886F"/>
<stop offset="0.71421" stop-color="#FFAD60"/>
<stop offset="0.907695" stop-color="#FFD35E"/>
<stop offset="1" stop-color="#F9F871"/>
</linearGradient>
<linearGradient id="paint7_linear_717_21688" x1="148.49" y1="124.089" x2="51.3732" y2="57.0726" gradientUnits="userSpaceOnUse">
<stop stop-color="#DF5698"/>
<stop offset="0.29082" stop-color="#FF6A84"/>
<stop offset="0.548983" stop-color="#FF886F"/>
<stop offset="0.71421" stop-color="#FFAD60"/>
<stop offset="0.907695" stop-color="#FFD35E"/>
<stop offset="1" stop-color="#F9F871"/>
</linearGradient>
<linearGradient id="paint8_linear_717_21688" x1="52.3676" y1="104.324" x2="38.9607" y2="101.704" gradientUnits="userSpaceOnUse">
<stop stop-color="#DF5698"/>
<stop offset="0.29082" stop-color="#FF6A84"/>
<stop offset="0.548983" stop-color="#FF886F"/>
<stop offset="0.71421" stop-color="#FFAD60"/>
<stop offset="0.907695" stop-color="#FFD35E"/>
<stop offset="1" stop-color="#F9F871"/>
</linearGradient>
<linearGradient id="paint9_linear_717_21688" x1="165.073" y1="49.4959" x2="151.666" y2="46.8759" gradientUnits="userSpaceOnUse">
<stop stop-color="#DF5698"/>
<stop offset="0.29082" stop-color="#FF6A84"/>
<stop offset="0.548983" stop-color="#FF886F"/>
<stop offset="0.71421" stop-color="#FFAD60"/>
<stop offset="0.907695" stop-color="#FFD35E"/>
<stop offset="1" stop-color="#F9F871"/>
</linearGradient>
<linearGradient id="paint10_linear_717_21688" x1="76.7364" y1="101.441" x2="62.8888" y2="100.45" gradientUnits="userSpaceOnUse">
<stop stop-color="#DF5698"/>
<stop offset="0.29082" stop-color="#FF6A84"/>
<stop offset="0.548983" stop-color="#FF886F"/>
<stop offset="0.71421" stop-color="#FFAD60"/>
<stop offset="0.907695" stop-color="#FFD35E"/>
<stop offset="1" stop-color="#F9F871"/>
</linearGradient>
<linearGradient id="paint11_linear_717_21688" x1="137.656" y1="49.6246" x2="123.837" y2="48.4664" gradientUnits="userSpaceOnUse">
<stop stop-color="#DF5698"/>
<stop offset="0.29082" stop-color="#FF6A84"/>
<stop offset="0.548983" stop-color="#FF886F"/>
<stop offset="0.71421" stop-color="#FFAD60"/>
<stop offset="0.907695" stop-color="#FFD35E"/>
<stop offset="1" stop-color="#F9F871"/>
</linearGradient>
<linearGradient id="paint12_linear_717_21688" x1="162.077" y1="154.935" x2="145.153" y2="151.628" gradientUnits="userSpaceOnUse">
<stop stop-color="#DF5698"/>
<stop offset="0.29082" stop-color="#FF6A84"/>
<stop offset="0.548983" stop-color="#FF886F"/>
<stop offset="0.71421" stop-color="#FFAD60"/>
<stop offset="0.907695" stop-color="#FFD35E"/>
<stop offset="1" stop-color="#F9F871"/>
</linearGradient>
<linearGradient id="paint13_linear_717_21688" x1="41.8897" y1="56.1753" x2="34.8557" y2="54.8005" gradientUnits="userSpaceOnUse">
<stop stop-color="#DF5698"/>
<stop offset="0.29082" stop-color="#FF6A84"/>
<stop offset="0.548983" stop-color="#FF886F"/>
<stop offset="0.71421" stop-color="#FFAD60"/>
<stop offset="0.907695" stop-color="#FFD35E"/>
<stop offset="1" stop-color="#F9F871"/>
</linearGradient>
<linearGradient id="paint14_linear_717_21688" x1="127.197" y1="96.0781" x2="120.162" y2="94.7034" gradientUnits="userSpaceOnUse">
<stop stop-color="#DF5698"/>
<stop offset="0.29082" stop-color="#FF6A84"/>
<stop offset="0.548983" stop-color="#FF886F"/>
<stop offset="0.71421" stop-color="#FFAD60"/>
<stop offset="0.907695" stop-color="#FFD35E"/>
<stop offset="1" stop-color="#F9F871"/>
</linearGradient>
<linearGradient id="paint15_linear_717_21688" x1="87.5957" y1="44.2951" x2="80.5627" y2="42.921" gradientUnits="userSpaceOnUse">
<stop stop-color="#DF5698"/>
<stop offset="0.29082" stop-color="#FF6A84"/>
<stop offset="0.548983" stop-color="#FF886F"/>
<stop offset="0.71421" stop-color="#FFAD60"/>
<stop offset="0.907695" stop-color="#FFD35E"/>
<stop offset="1" stop-color="#F9F871"/>
</linearGradient>
<linearGradient id="paint16_linear_717_21688" x1="111.963" y1="160.048" x2="104.93" y2="158.674" gradientUnits="userSpaceOnUse">
<stop stop-color="#DF5698"/>
<stop offset="0.29082" stop-color="#FF6A84"/>
<stop offset="0.548983" stop-color="#FF886F"/>
<stop offset="0.71421" stop-color="#FFAD60"/>
<stop offset="0.907695" stop-color="#FFD35E"/>
<stop offset="1" stop-color="#F9F871"/>
</linearGradient>
<linearGradient id="paint17_linear_717_21688" x1="154.596" y1="114.052" x2="147.563" y2="112.678" gradientUnits="userSpaceOnUse">
<stop stop-color="#DF5698"/>
<stop offset="0.29082" stop-color="#FF6A84"/>
<stop offset="0.548983" stop-color="#FF886F"/>
<stop offset="0.71421" stop-color="#FFAD60"/>
<stop offset="0.907695" stop-color="#FFD35E"/>
<stop offset="1" stop-color="#F9F871"/>
</linearGradient>
<linearGradient id="paint18_linear_717_21688" x1="164.337" y1="136.029" x2="156.639" y2="134.525" gradientUnits="userSpaceOnUse">
<stop stop-color="#DF5698"/>
<stop offset="0.29082" stop-color="#FF6A84"/>
<stop offset="0.548983" stop-color="#FF886F"/>
<stop offset="0.71421" stop-color="#FFAD60"/>
<stop offset="0.907695" stop-color="#FFD35E"/>
<stop offset="1" stop-color="#F9F871"/>
</linearGradient>
<linearGradient id="paint19_linear_717_21688" x1="94.2765" y1="117.179" x2="86.5786" y2="115.675" gradientUnits="userSpaceOnUse">
<stop stop-color="#DF5698"/>
<stop offset="0.29082" stop-color="#FF6A84"/>
<stop offset="0.548983" stop-color="#FF886F"/>
<stop offset="0.71421" stop-color="#FFAD60"/>
<stop offset="0.907695" stop-color="#FFD35E"/>
<stop offset="1" stop-color="#F9F871"/>
</linearGradient>
<linearGradient id="paint20_linear_717_21688" x1="106.458" y1="50.7399" x2="98.7602" y2="49.2356" gradientUnits="userSpaceOnUse">
<stop stop-color="#DF5698"/>
<stop offset="0.29082" stop-color="#FF6A84"/>
<stop offset="0.548983" stop-color="#FF886F"/>
<stop offset="0.71421" stop-color="#FFAD60"/>
<stop offset="0.907695" stop-color="#FFD35E"/>
<stop offset="1" stop-color="#F9F871"/>
</linearGradient>
<linearGradient id="paint21_linear_717_21688" x1="72.3741" y1="162.875" x2="64.6762" y2="161.37" gradientUnits="userSpaceOnUse">
<stop stop-color="#DF5698"/>
<stop offset="0.29082" stop-color="#FF6A84"/>
<stop offset="0.548983" stop-color="#FF886F"/>
<stop offset="0.71421" stop-color="#FFAD60"/>
<stop offset="0.907695" stop-color="#FFD35E"/>
<stop offset="1" stop-color="#F9F871"/>
</linearGradient>
</defs>
</svg>
