<svg width="198" height="198" viewBox="0 0 198 198" fill="none" xmlns="http://www.w3.org/2000/svg">
<path d="M36.1976 123.298C36.4893 123.826 37.0462 124.169 37.655 124.116L46.7152 123.715L52.232 130.934C52.5348 131.329 53.0022 131.556 53.4894 131.556C53.5911 131.556 53.6927 131.546 53.7955 131.526C54.3877 131.41 54.8617 130.967 55.0186 130.385L57.3754 121.683L65.9174 118.732C66.4875 118.534 66.8974 118.03 66.9726 117.431C67.0466 116.831 66.7748 116.241 66.271 115.911L58.6703 110.922L58.4405 101.884C58.4261 101.282 58.0714 100.742 57.5267 100.489C56.982 100.23 56.3389 100.31 55.8693 100.686L48.8177 106.316L40.1264 103.683C39.5463 103.505 38.9198 103.676 38.5076 104.118C38.0955 104.56 37.9718 105.2 38.1872 105.764L41.4214 114.226L36.2825 121.63C35.94 122.125 35.9057 122.771 36.1974 123.298L36.1976 123.298ZM44.5001 115.345C44.7984 114.916 44.8647 114.365 44.678 113.876L42.2991 107.652L48.6953 109.589C49.1925 109.742 49.7339 109.636 50.1428 109.31L55.3547 105.15L55.5237 111.832C55.5359 112.351 55.8044 112.832 56.2386 113.117L61.8361 116.791L55.549 118.962C55.0529 119.133 54.675 119.538 54.5369 120.046L52.7989 126.461L48.7283 121.135C48.4289 120.742 47.9615 120.513 47.4709 120.513C47.4466 120.513 47.4245 120.513 47.4013 120.514L40.7089 120.813L44.5001 115.345Z" fill="url(#paint0_linear_717_21687)"/>
<path d="M81.8671 162.719C81.8959 162.72 81.9224 162.72 81.95 162.72C82.7875 162.72 83.4869 162.066 83.5311 161.22C83.5775 160.329 84.436 139.272 65.1078 126.904C64.3708 126.433 63.3919 126.648 62.92 127.385C62.4482 128.122 62.6637 129.102 63.3996 129.574C81.1401 140.925 80.3767 160.858 80.3676 161.059C80.3223 161.931 80.9963 162.675 81.867 162.719L81.8671 162.719Z" fill="url(#paint1_linear_717_21687)"/>
<path d="M143.684 130.387C143.842 130.968 144.316 131.41 144.907 131.527C145.009 131.548 145.111 131.557 145.213 131.557C145.701 131.557 146.168 131.331 146.47 130.935L151.987 123.717L161.047 124.118C161.678 124.169 162.215 123.828 162.505 123.3C162.796 122.773 162.763 122.127 162.42 121.631L157.281 114.226L160.515 105.765C160.73 105.202 160.607 104.561 160.195 104.119C159.781 103.677 159.157 103.504 158.576 103.683L149.884 106.316L142.833 100.687C142.362 100.311 141.719 100.233 141.175 100.489C140.631 100.742 140.276 101.283 140.262 101.885L140.034 110.924L132.435 115.91C131.93 116.242 131.657 116.831 131.731 117.431C131.805 118.03 132.214 118.534 132.786 118.731L141.328 121.683L143.684 130.387ZM142.465 113.118C142.899 112.833 143.167 112.355 143.18 111.833L143.349 105.152L148.561 109.312C148.968 109.638 149.511 109.743 150.008 109.59L156.405 107.653L154.026 113.877C153.839 114.367 153.905 114.916 154.204 115.347L157.996 120.812L151.303 120.513C150.763 120.469 150.288 120.722 149.974 121.134L145.903 126.46L144.165 120.045C144.027 119.54 143.649 119.134 143.153 118.961L136.866 116.79L142.465 113.118Z" fill="url(#paint2_linear_717_21687)"/>
<path d="M135.302 129.572C136.039 129.1 136.254 128.121 135.782 127.383C135.31 126.646 134.329 126.431 133.594 126.902C114.267 139.27 115.125 160.327 115.172 161.218C115.215 162.064 115.914 162.719 116.753 162.719C116.781 162.719 116.808 162.719 116.837 162.718C117.71 162.672 118.382 161.928 118.337 161.053C118.325 160.854 117.507 140.957 135.302 129.571L135.302 129.572Z" fill="url(#paint3_linear_717_21687)"/>
<path d="M109.161 47.7684C108.361 47.4104 107.425 47.765 107.067 48.5639C106.709 49.3627 107.066 50.2997 107.862 50.6577C117.894 55.1659 124.485 65.2545 124.656 76.3578C124.74 81.8237 123.286 87.1482 120.454 91.756C119.994 92.5007 120.228 93.4763 120.973 93.9338C121.233 94.094 121.518 94.168 121.802 94.168C122.335 94.168 122.854 93.9006 123.153 93.4122C126.302 88.2942 127.918 82.3785 127.826 76.307C127.635 63.9807 120.309 52.779 109.161 47.7696L109.161 47.7684Z" fill="url(#paint4_linear_717_21687)"/>
<path d="M138.951 75.9847C138.612 53.8511 120.676 36 98.8813 36C98.7465 36 98.6073 36 98.4725 36.0011C87.9194 36.1083 78.0372 40.3478 70.6419 47.9332C63.1052 55.6642 59.047 65.9212 59.2139 76.8157C59.5244 97.0434 74.6605 114.011 94.1128 116.478L93.2897 118.065C92.5162 119.394 92.4908 120.944 93.2212 122.215C94.0112 123.589 95.5492 124.41 97.3348 124.41H97.8651V161.136C97.8651 162.012 98.5745 162.721 99.4496 162.721C100.324 162.721 101.034 162.012 101.034 161.136L101.032 124.413H101.682C103.573 124.413 105.276 123.497 106.124 122.021C106.847 120.765 106.841 119.325 106.11 118.067L105.117 116.36C124.582 113.458 139.26 96.1869 138.952 75.9824L138.951 75.9847ZM102.394 113.492C101.854 113.536 101.375 113.856 101.124 114.339C100.873 114.821 100.887 115.398 101.16 115.866L103.37 119.661C103.468 119.829 103.576 120.096 103.377 120.443C103.165 120.813 102.591 121.246 101.681 121.246H97.3328C96.6964 121.246 96.1848 121.019 95.9661 120.639C95.8026 120.355 95.8235 120.008 96.0622 119.595L98.0024 115.858C98.2499 115.383 98.2389 114.816 97.9759 114.35C97.713 113.883 97.2334 113.582 96.6975 113.547C77.7526 112.329 62.6783 96.1754 62.3813 76.7669C62.2277 66.7232 65.9679 57.2673 72.9101 50.1441C79.7131 43.1654 88.8022 39.2662 98.5064 39.1667C98.6313 39.1678 98.7539 39.1678 98.881 39.1678C118.952 39.1678 135.474 55.6275 135.783 76.0325C136.08 95.4182 121.412 111.871 102.394 113.491L102.394 113.492Z" fill="url(#paint5_linear_717_21687)"/>
<defs>
<linearGradient id="paint0_linear_717_21687" x1="66.9846" y1="116.101" x2="36.1412" y2="114.015" gradientUnits="userSpaceOnUse">
<stop stop-color="#701FFF"/>
<stop offset="1" stop-color="#9C1FFF"/>
</linearGradient>
<linearGradient id="paint1_linear_717_21687" x1="83.5484" y1="144.866" x2="62.7024" y2="144.043" gradientUnits="userSpaceOnUse">
<stop stop-color="#701FFF"/>
<stop offset="1" stop-color="#9C1FFF"/>
</linearGradient>
<linearGradient id="paint2_linear_717_21687" x1="162.703" y1="116.103" x2="131.86" y2="114.017" gradientUnits="userSpaceOnUse">
<stop stop-color="#701FFF"/>
<stop offset="1" stop-color="#9C1FFF"/>
</linearGradient>
<linearGradient id="paint3_linear_717_21687" x1="136.032" y1="144.864" x2="115.187" y2="144.042" gradientUnits="userSpaceOnUse">
<stop stop-color="#701FFF"/>
<stop offset="1" stop-color="#9C1FFF"/>
</linearGradient>
<linearGradient id="paint4_linear_717_21687" x1="127.83" y1="71.1288" x2="106.947" y2="70.4896" gradientUnits="userSpaceOnUse">
<stop stop-color="#701FFF"/>
<stop offset="1" stop-color="#9C1FFF"/>
</linearGradient>
<linearGradient id="paint5_linear_717_21687" x1="138.957" y1="99.9877" x2="59.3554" y2="96.5734" gradientUnits="userSpaceOnUse">
<stop stop-color="#701FFF"/>
<stop offset="1" stop-color="#9C1FFF"/>
</linearGradient>
</defs>
</svg>
